# This file uses centimeters as units for non-parametric coordinates.

mtllib LevelPig.mtl
g default
v -12.922838 -0.000000 12.922838
v -11.630554 -0.000000 12.922838
v -10.338270 -0.000000 12.922838
v -9.045986 -0.000000 12.922838
v -7.753703 -0.000000 12.922838
v -6.461419 -0.000000 12.922838
v -5.169135 -0.000000 12.922838
v -3.876851 -0.000000 12.922838
v -2.584568 0.240186 12.922838
v -1.292284 0.619977 12.922838
v 0.000000 0.619977 12.922838
v 1.292284 0.619977 12.922838
v 2.584568 0.619977 12.922838
v 3.876851 0.240186 12.922838
v 5.169135 -0.000000 12.922838
v 6.461419 -0.000000 12.922838
v 7.753703 -0.000000 12.922838
v 9.045986 -0.000000 12.922838
v 10.338270 -0.000000 12.922838
v 11.630554 -0.000000 12.922838
v 12.922838 -0.000000 12.922838
v -12.922838 -0.000000 11.630554
v -11.630554 -0.000000 11.630554
v -10.338270 -0.000000 11.630554
v -9.045986 -0.000000 11.630554
v -7.753703 -0.000000 11.630554
v -6.461419 -0.000000 11.630554
v -5.169135 -0.000000 11.630554
v -3.876851 -0.000000 11.630554
v -2.584568 0.240186 11.630554
v -1.292284 0.619977 11.630554
v 0.000000 0.619977 11.630554
v 1.292284 0.619977 11.630554
v 2.584568 0.619977 11.630554
v 3.876851 0.240186 11.630554
v 5.169135 -0.000000 11.630554
v 6.461419 -0.000000 11.630554
v 7.753703 -0.000000 11.630554
v 9.045986 -0.000000 11.630554
v 10.338270 -0.000000 11.630554
v 11.630554 -0.000000 11.630554
v 12.922838 -0.000000 11.630554
v -12.922838 -0.000000 10.338270
v -11.630554 -0.000000 10.338270
v -10.338270 -0.000000 10.338270
v -9.045986 -0.000000 10.338270
v -7.753703 -0.000000 10.338270
v -6.461419 -0.000000 10.338270
v -5.169135 -0.000000 10.338270
v -3.876851 0.240186 10.338270
v -2.584568 0.240186 10.338270
v -1.292284 0.619977 10.338270
v 0.000000 0.619977 10.338270
v 1.292284 0.619977 10.338270
v 2.584568 0.240186 10.338270
v 3.876851 0.240186 10.338270
v 5.169135 -0.000000 10.338270
v 6.461419 -0.000000 10.338270
v 7.753703 -0.000000 10.338270
v 9.045986 -0.000000 10.338270
v 10.338270 -0.000000 10.338270
v 11.630554 -0.000000 10.338270
v 12.922838 -0.000000 10.338270
v -12.922838 -0.000000 9.045986
v -11.630554 -0.000000 9.045986
v -10.338270 -0.000000 9.045986
v -9.045986 -0.000000 9.045986
v -7.753703 -0.000000 9.045986
v -6.461419 -0.000000 9.045986
v -5.169135 -0.000000 9.045986
v -3.876851 0.240186 9.045986
v -2.584568 0.240186 9.045986
v -1.292284 0.619977 9.045986
v 0.000000 0.619977 9.045986
v 1.292284 0.619977 9.045986
v 2.584568 0.240186 9.045986
v 3.876851 -0.000000 9.045986
v 5.169135 -0.000000 9.045986
v 6.461419 -0.000000 9.045986
v 7.753703 -0.000000 9.045986
v 9.045986 0.666202 9.045986
v 10.338270 0.666202 9.045986
v 11.630554 0.666202 9.045986
v 12.922838 -0.000000 9.045986
v -12.922838 -0.000000 7.753703
v -11.630554 -0.000000 7.753703
v -10.338270 -0.000000 7.753703
v -9.045986 -0.000000 7.753703
v -7.753703 -0.000000 7.753703
v -6.461419 -0.000000 7.753703
v -5.169135 -0.000000 7.753703
v -3.876851 -0.000000 7.753703
v -2.584568 0.240186 7.753703
v -1.292284 0.240186 7.753703
v 0.000000 0.240186 7.753703
v 1.292284 0.240186 7.753703
v 2.584568 0.240186 7.753703
v 3.876851 -0.000000 7.753703
v 5.169135 -0.000000 7.753703
v 6.461419 -0.000000 7.753703
v 7.753703 0.666202 7.753703
v 9.045986 0.666202 7.753703
v 10.338270 0.666202 7.753703
v 11.630554 0.666202 7.753703
v 12.922838 -0.000000 7.753703
v -12.922838 -0.000000 6.461419
v -11.630554 -0.000000 6.461419
v -10.338270 -0.000000 6.461419
v -9.045986 -0.000000 6.461419
v -7.753703 -0.000000 6.461419
v -6.461419 -0.000000 6.461419
v -5.169135 -0.000000 6.461419
v -3.876851 0.367074 6.461419
v -2.584568 0.367074 6.461419
v -1.292284 0.367074 6.461419
v 0.000000 0.240186 6.461419
v 1.292284 0.240186 6.461419
v 2.584568 0.634618 6.461419
v 3.876851 0.394432 6.461419
v 5.169135 0.394432 6.461419
v 6.461419 -0.000000 6.461419
v 7.753703 0.666202 6.461419
v 9.045986 0.666202 6.461419
v 10.338270 0.666202 6.461419
v 11.630554 0.666202 6.461419
v 12.922838 -0.000000 6.461419
v -12.922838 -0.000000 5.169135
v -11.630554 -0.000000 5.169135
v -10.338270 -0.000000 5.169135
v -9.045986 -0.000000 5.169135
v -7.753703 -0.000000 5.169135
v -6.461419 0.355596 5.169135
v -5.169135 0.355596 5.169135
v -3.876851 0.722670 5.169135
v -2.584568 0.367074 5.169135
v -1.292284 0.367074 5.169135
v 0.000000 -0.000000 5.169135
v 1.292284 -0.000000 5.169135
v 2.584568 0.394432 5.169135
v 3.876851 0.394432 5.169135
v 5.169135 0.394432 5.169135
v 6.461419 -0.000000 5.169135
v 7.753703 0.666202 5.169135
v 9.045986 0.666202 5.169135
v 10.338270 0.666202 5.169135
v 11.630554 -0.000000 5.169135
v 12.922838 -0.000000 5.169135
v -12.922838 0.497192 3.876851
v -11.630554 0.497192 3.876851
v -10.338270 0.497192 3.876851
v -9.045986 0.497192 3.876851
v -7.753703 -0.000000 3.876851
v -6.461419 0.355596 3.876851
v -5.169135 0.355596 3.876851
v -3.876851 0.722670 3.876851
v -2.584568 0.722670 3.876851
v -1.292284 0.722670 3.876851
v 0.000000 0.355596 3.876851
v 1.292284 0.355596 3.876851
v 2.584568 0.750027 3.876851
v 3.876851 0.750027 3.876851
v 5.169135 0.750027 3.876851
v 6.461419 0.355596 3.876851
v 7.753703 0.355596 3.876851
v 9.045986 -0.000000 3.876851
v 10.338270 -0.000000 3.876851
v 11.630554 -0.000000 3.876851
v 12.922838 -0.000000 3.876851
v -12.922838 0.862485 2.584568
v -11.630554 0.862485 2.584568
v -10.338270 0.862485 2.584568
v -9.045986 0.497192 2.584568
v -7.753703 0.497192 2.584568
v -6.461419 0.355596 2.584568
v -5.169135 0.355596 2.584568
v -3.876851 0.355596 2.584568
v -2.584568 0.355596 2.584568
v -1.292284 0.355596 2.584568
v 0.000000 0.355596 2.584568
v 1.292284 0.355596 2.584568
v 2.584568 0.355596 2.584568
v 3.876851 0.355596 2.584568
v 5.169135 0.355596 2.584568
v 6.461419 0.355596 2.584568
v 7.753703 0.355596 2.584568
v 9.045986 -0.000000 2.584568
v 10.338270 -0.000000 2.584568
v 11.630554 -0.000000 2.584568
v 12.922838 -0.000000 2.584568
v -12.922838 0.862485 1.292284
v -11.630554 0.862485 1.292284
v -10.338270 0.862485 1.292284
v -9.045986 0.497192 1.292284
v -7.753703 0.497192 1.292284
v -6.461419 0.355596 1.292284
v -5.169135 0.355596 1.292284
v -3.876851 0.355596 1.292284
v -2.584568 0.355596 1.292284
v -1.292284 0.355596 1.292284
v 0.000000 0.355596 1.292284
v 1.292284 0.355596 1.292284
v 2.584568 0.355596 1.292284
v 3.876851 0.355596 1.292284
v 5.169135 0.355596 1.292284
v 6.461419 0.355596 1.292284
v 7.753703 0.355596 1.292284
v 9.045986 -0.000000 1.292284
v 10.338270 -0.000000 1.292284
v 11.630554 -0.000000 1.292284
v 12.922838 -0.000000 1.292284
v -12.922838 0.862485 0.000000
v -11.630554 0.862485 0.000000
v -10.338270 0.862485 0.000000
v -9.045986 0.497192 0.000000
v -7.753703 0.497192 0.000000
v -6.461419 0.355596 0.000000
v -5.169135 0.355596 0.000000
v -3.876851 0.355596 0.000000
v -2.584568 0.355596 0.000000
v -1.292284 0.601835 0.000000
v 0.000000 0.601835 0.000000
v 1.292284 0.601835 0.000000
v 2.584568 0.355596 0.000000
v 3.876851 0.355596 0.000000
v 5.169135 0.355596 0.000000
v 6.461419 0.355596 0.000000
v 7.753703 0.355596 0.000000
v 9.045986 0.000000 0.000000
v 10.338270 0.000000 0.000000
v 11.630554 0.000000 0.000000
v 12.922838 0.000000 0.000000
v -12.922838 0.862485 -1.292284
v -11.630554 0.862485 -1.292284
v -10.338270 0.862485 -1.292284
v -9.045986 0.862485 -1.292284
v -7.753703 0.497192 -1.292284
v -6.461419 0.852789 -1.292284
v -5.169135 0.355596 -1.292284
v -3.876851 0.355596 -1.292284
v -2.584568 0.355596 -1.292284
v -1.292284 0.601835 -1.292284
v 0.000000 0.601835 -1.292284
v 1.292284 0.601835 -1.292284
v 2.584568 0.601835 -1.292284
v 3.876851 0.355596 -1.292284
v 5.169135 0.355596 -1.292284
v 6.461419 0.355596 -1.292284
v 7.753703 0.355596 -1.292284
v 9.045986 0.000000 -1.292284
v 10.338270 0.000000 -1.292284
v 11.630554 0.000000 -1.292284
v 12.922838 0.000000 -1.292284
v -12.922838 0.862485 -2.584568
v -11.630554 0.862485 -2.584568
v -10.338270 0.862485 -2.584568
v -9.045986 0.862485 -2.584568
v -7.753703 0.497192 -2.584568
v -6.461419 0.852789 -2.584568
v -5.169135 0.852789 -2.584568
v -3.876851 0.355596 -2.584568
v -2.584568 0.355596 -2.584568
v -1.292284 0.601835 -2.584568
v 0.000000 0.601835 -2.584568
v 1.292284 0.601835 -2.584568
v 2.584568 0.601835 -2.584568
v 3.876851 0.355596 -2.584568
v 5.169135 0.355596 -2.584568
v 6.461419 0.355596 -2.584568
v 7.753703 0.355596 -2.584568
v 9.045986 0.000000 -2.584568
v 10.338270 0.000000 -2.584568
v 11.630554 0.000000 -2.584568
v 12.922838 0.000000 -2.584568
v -12.922838 0.862485 -3.876851
v -11.630554 0.862485 -3.876851
v -10.338270 0.862485 -3.876851
v -9.045986 0.862485 -3.876851
v -7.753703 0.862485 -3.876851
v -6.461419 0.852789 -3.876851
v -5.169135 0.852789 -3.876851
v -3.876851 0.355596 -3.876851
v -2.584568 0.355596 -3.876851
v -1.292284 0.601835 -3.876851
v 0.000000 0.601835 -3.876851
v 1.292284 0.601835 -3.876851
v 2.584568 0.601835 -3.876851
v 3.876851 0.355596 -3.876851
v 5.169135 0.702882 -3.876851
v 6.461419 0.702882 -3.876851
v 7.753703 0.347286 -3.876851
v 9.045986 0.347286 -3.876851
v 10.338270 0.347286 -3.876851
v 11.630554 0.347286 -3.876851
v 12.922838 0.000000 -3.876851
v -12.922838 0.862485 -5.169135
v -11.630554 0.862485 -5.169135
v -10.338270 0.862485 -5.169135
v -9.045986 0.862485 -5.169135
v -7.753703 0.862485 -5.169135
v -6.461419 0.852789 -5.169135
v -5.169135 0.852789 -5.169135
v -3.876851 0.355596 -5.169135
v -2.584568 0.355596 -5.169135
v -1.292284 0.601835 -5.169135
v 0.000000 0.601835 -5.169135
v 1.292284 0.601835 -5.169135
v 2.584568 0.601835 -5.169135
v 3.876851 0.355596 -5.169135
v 5.169135 0.702882 -5.169135
v 6.461419 0.702882 -5.169135
v 7.753703 0.347286 -5.169135
v 9.045986 0.347286 -5.169135
v 10.338270 0.347286 -5.169135
v 11.630554 0.347286 -5.169135
v 12.922838 0.000000 -5.169135
v -12.922838 0.862485 -6.461419
v -11.630554 0.862485 -6.461419
v -10.338270 0.862485 -6.461419
v -9.045986 0.862485 -6.461419
v -7.753703 0.862485 -6.461419
v -6.461419 0.497192 -6.461419
v -5.169135 0.497192 -6.461419
v -3.876851 0.000000 -6.461419
v -2.584568 0.000000 -6.461419
v -1.292284 0.000000 -6.461419
v 0.000000 0.000000 -6.461419
v 1.292284 0.000000 -6.461419
v 2.584568 0.000000 -6.461419
v 3.876851 0.000000 -6.461419
v 5.169135 0.347286 -6.461419
v 6.461419 0.347286 -6.461419
v 7.753703 0.752663 -6.461419
v 9.045986 0.752663 -6.461419
v 10.338270 0.752663 -6.461419
v 11.630554 0.347286 -6.461419
v 12.922838 0.000000 -6.461419
v -12.922838 0.862485 -7.753703
v -11.630554 0.862485 -7.753703
v -10.338270 0.862485 -7.753703
v -9.045986 0.862485 -7.753703
v -7.753703 0.862485 -7.753703
v -6.461419 0.497192 -7.753703
v -5.169135 0.497192 -7.753703
v -3.876851 0.000000 -7.753703
v -2.584568 0.000000 -7.753703
v -1.292284 0.000000 -7.753703
v 0.000000 0.000000 -7.753703
v 1.292284 0.000000 -7.753703
v 2.584568 0.000000 -7.753703
v 3.876851 0.000000 -7.753703
v 5.169135 0.347286 -7.753703
v 6.461419 0.752663 -7.753703
v 7.753703 0.752663 -7.753703
v 9.045986 0.752663 -7.753703
v 10.338270 0.752663 -7.753703
v 11.630554 0.752663 -7.753703
v 12.922838 0.000000 -7.753703
v -12.922838 0.862485 -9.045986
v -11.630554 0.862485 -9.045986
v -10.338270 0.497192 -9.045986
v -9.045986 0.497192 -9.045986
v -7.753703 0.497192 -9.045986
v -6.461419 0.497192 -9.045986
v -5.169135 0.497192 -9.045986
v -3.876851 0.000000 -9.045986
v -2.584568 0.000000 -9.045986
v -1.292284 0.000000 -9.045986
v 0.000000 0.347105 -9.045986
v 1.292284 0.347105 -9.045986
v 2.584568 0.347105 -9.045986
v 3.876851 0.347105 -9.045986
v 5.169135 0.347286 -9.045986
v 6.461419 0.752663 -9.045986
v 7.753703 0.752663 -9.045986
v 9.045986 0.752663 -9.045986
v 10.338270 0.752663 -9.045986
v 11.630554 0.752663 -9.045986
v 12.922838 0.000000 -9.045986
v -12.922838 0.000000 -10.338270
v -11.630554 0.497192 -10.338270
v -10.338270 0.497192 -10.338270
v -9.045986 0.497192 -10.338270
v -7.753703 0.497192 -10.338270
v -6.461419 0.000000 -10.338270
v -5.169135 0.000000 -10.338270
v -3.876851 0.000000 -10.338270
v -2.584568 0.000000 -10.338270
v -1.292284 0.347105 -10.338270
v 0.000000 0.347105 -10.338270
v 1.292284 0.347105 -10.338270
v 2.584568 0.347105 -10.338270
v 3.876851 0.347105 -10.338270
v 5.169135 0.347286 -10.338270
v 6.461419 0.752663 -10.338270
v 7.753703 0.752663 -10.338270
v 9.045986 0.752663 -10.338270
v 10.338270 0.752663 -10.338270
v 11.630554 0.752663 -10.338270
v 12.922838 0.000000 -10.338270
v -12.922838 0.000000 -11.630554
v -11.630554 0.000000 -11.630554
v -10.338270 0.000000 -11.630554
v -9.045986 0.000000 -11.630554
v -7.753703 0.000000 -11.630554
v -6.461419 0.000000 -11.630554
v -5.169135 0.000000 -11.630554
v -3.876851 0.000000 -11.630554
v -2.584568 0.000000 -11.630554
v -1.292284 0.347105 -11.630554
v 0.000000 0.347105 -11.630554
v 1.292284 0.347105 -11.630554
v 2.584568 0.347105 -11.630554
v 3.876851 0.347105 -11.630554
v 5.169135 0.000000 -11.630554
v 6.461419 0.405377 -11.630554
v 7.753703 0.405377 -11.630554
v 9.045986 0.405377 -11.630554
v 10.338270 0.405377 -11.630554
v 11.630554 0.405377 -11.630554
v 12.922838 0.000000 -11.630554
v -12.922838 0.000000 -12.922838
v -11.630554 0.000000 -12.922838
v -10.338270 0.000000 -12.922838
v -9.045986 0.000000 -12.922838
v -7.753703 0.000000 -12.922838
v -6.461419 0.000000 -12.922838
v -5.169135 0.000000 -12.922838
v -3.876851 0.000000 -12.922838
v -2.584568 0.000000 -12.922838
v -1.292284 0.347105 -12.922838
v 0.000000 0.347105 -12.922838
v 1.292284 0.347105 -12.922838
v 2.584568 0.347105 -12.922838
v 3.876851 0.000000 -12.922838
v 5.169135 0.000000 -12.922838
v 6.461419 0.000000 -12.922838
v 7.753703 0.405377 -12.922838
v 9.045986 0.405377 -12.922838
v 10.338270 0.405377 -12.922838
v 11.630554 0.000000 -12.922838
v 12.922838 0.000000 -12.922838
vt 0.000000 0.000000
vt 0.050000 0.000000
vt 0.100000 0.000000
vt 0.150000 0.000000
vt 0.200000 0.000000
vt 0.250000 0.000000
vt 0.300000 0.000000
vt 0.350000 0.000000
vt 0.400000 0.000000
vt 0.450000 0.000000
vt 0.500000 0.000000
vt 0.550000 0.000000
vt 0.600000 0.000000
vt 0.650000 0.000000
vt 0.700000 0.000000
vt 0.750000 0.000000
vt 0.800000 0.000000
vt 0.850000 0.000000
vt 0.900000 0.000000
vt 0.950000 0.000000
vt 1.000000 0.000000
vt 0.000000 0.050000
vt 0.050000 0.050000
vt 0.100000 0.050000
vt 0.150000 0.050000
vt 0.200000 0.050000
vt 0.250000 0.050000
vt 0.300000 0.050000
vt 0.350000 0.050000
vt 0.400000 0.050000
vt 0.450000 0.050000
vt 0.500000 0.050000
vt 0.550000 0.050000
vt 0.600000 0.050000
vt 0.650000 0.050000
vt 0.700000 0.050000
vt 0.750000 0.050000
vt 0.800000 0.050000
vt 0.850000 0.050000
vt 0.900000 0.050000
vt 0.950000 0.050000
vt 1.000000 0.050000
vt 0.000000 0.100000
vt 0.050000 0.100000
vt 0.100000 0.100000
vt 0.150000 0.100000
vt 0.200000 0.100000
vt 0.250000 0.100000
vt 0.300000 0.100000
vt 0.350000 0.100000
vt 0.400000 0.100000
vt 0.450000 0.100000
vt 0.500000 0.100000
vt 0.550000 0.100000
vt 0.600000 0.100000
vt 0.650000 0.100000
vt 0.700000 0.100000
vt 0.750000 0.100000
vt 0.800000 0.100000
vt 0.850000 0.100000
vt 0.900000 0.100000
vt 0.950000 0.100000
vt 1.000000 0.100000
vt 0.000000 0.150000
vt 0.050000 0.150000
vt 0.100000 0.150000
vt 0.150000 0.150000
vt 0.200000 0.150000
vt 0.250000 0.150000
vt 0.300000 0.150000
vt 0.350000 0.150000
vt 0.400000 0.150000
vt 0.450000 0.150000
vt 0.500000 0.150000
vt 0.550000 0.150000
vt 0.600000 0.150000
vt 0.650000 0.150000
vt 0.700000 0.150000
vt 0.750000 0.150000
vt 0.800000 0.150000
vt 0.850000 0.150000
vt 0.900000 0.150000
vt 0.950000 0.150000
vt 1.000000 0.150000
vt 0.000000 0.200000
vt 0.050000 0.200000
vt 0.100000 0.200000
vt 0.150000 0.200000
vt 0.200000 0.200000
vt 0.250000 0.200000
vt 0.300000 0.200000
vt 0.350000 0.200000
vt 0.400000 0.200000
vt 0.450000 0.200000
vt 0.500000 0.200000
vt 0.550000 0.200000
vt 0.600000 0.200000
vt 0.650000 0.200000
vt 0.700000 0.200000
vt 0.750000 0.200000
vt 0.800000 0.200000
vt 0.850000 0.200000
vt 0.900000 0.200000
vt 0.950000 0.200000
vt 1.000000 0.200000
vt 0.000000 0.250000
vt 0.050000 0.250000
vt 0.100000 0.250000
vt 0.150000 0.250000
vt 0.200000 0.250000
vt 0.250000 0.250000
vt 0.300000 0.250000
vt 0.350000 0.250000
vt 0.400000 0.250000
vt 0.450000 0.250000
vt 0.500000 0.250000
vt 0.550000 0.250000
vt 0.600000 0.250000
vt 0.650000 0.250000
vt 0.700000 0.250000
vt 0.750000 0.250000
vt 0.800000 0.250000
vt 0.850000 0.250000
vt 0.900000 0.250000
vt 0.950000 0.250000
vt 1.000000 0.250000
vt 0.000000 0.300000
vt 0.050000 0.300000
vt 0.100000 0.300000
vt 0.150000 0.300000
vt 0.200000 0.300000
vt 0.250000 0.300000
vt 0.300000 0.300000
vt 0.350000 0.300000
vt 0.400000 0.300000
vt 0.450000 0.300000
vt 0.500000 0.300000
vt 0.550000 0.300000
vt 0.600000 0.300000
vt 0.650000 0.300000
vt 0.700000 0.300000
vt 0.750000 0.300000
vt 0.800000 0.300000
vt 0.850000 0.300000
vt 0.900000 0.300000
vt 0.950000 0.300000
vt 1.000000 0.300000
vt 0.000000 0.350000
vt 0.050000 0.350000
vt 0.100000 0.350000
vt 0.150000 0.350000
vt 0.200000 0.350000
vt 0.250000 0.350000
vt 0.300000 0.350000
vt 0.350000 0.350000
vt 0.400000 0.350000
vt 0.450000 0.350000
vt 0.500000 0.350000
vt 0.550000 0.350000
vt 0.600000 0.350000
vt 0.650000 0.350000
vt 0.700000 0.350000
vt 0.750000 0.350000
vt 0.800000 0.350000
vt 0.850000 0.350000
vt 0.900000 0.350000
vt 0.950000 0.350000
vt 1.000000 0.350000
vt 0.000000 0.400000
vt 0.050000 0.400000
vt 0.100000 0.400000
vt 0.150000 0.400000
vt 0.200000 0.400000
vt 0.250000 0.400000
vt 0.300000 0.400000
vt 0.350000 0.400000
vt 0.400000 0.400000
vt 0.450000 0.400000
vt 0.500000 0.400000
vt 0.550000 0.400000
vt 0.600000 0.400000
vt 0.650000 0.400000
vt 0.700000 0.400000
vt 0.750000 0.400000
vt 0.800000 0.400000
vt 0.850000 0.400000
vt 0.900000 0.400000
vt 0.950000 0.400000
vt 1.000000 0.400000
vt 0.000000 0.450000
vt 0.050000 0.450000
vt 0.100000 0.450000
vt 0.150000 0.450000
vt 0.200000 0.450000
vt 0.250000 0.450000
vt 0.300000 0.450000
vt 0.350000 0.450000
vt 0.400000 0.450000
vt 0.450000 0.450000
vt 0.500000 0.450000
vt 0.550000 0.450000
vt 0.600000 0.450000
vt 0.650000 0.450000
vt 0.700000 0.450000
vt 0.750000 0.450000
vt 0.800000 0.450000
vt 0.850000 0.450000
vt 0.900000 0.450000
vt 0.950000 0.450000
vt 1.000000 0.450000
vt 0.000000 0.500000
vt 0.050000 0.500000
vt 0.100000 0.500000
vt 0.150000 0.500000
vt 0.200000 0.500000
vt 0.250000 0.500000
vt 0.300000 0.500000
vt 0.350000 0.500000
vt 0.400000 0.500000
vt 0.450000 0.500000
vt 0.500000 0.500000
vt 0.550000 0.500000
vt 0.600000 0.500000
vt 0.650000 0.500000
vt 0.700000 0.500000
vt 0.750000 0.500000
vt 0.800000 0.500000
vt 0.850000 0.500000
vt 0.900000 0.500000
vt 0.950000 0.500000
vt 1.000000 0.500000
vt 0.000000 0.550000
vt 0.050000 0.550000
vt 0.100000 0.550000
vt 0.150000 0.550000
vt 0.200000 0.550000
vt 0.250000 0.550000
vt 0.300000 0.550000
vt 0.350000 0.550000
vt 0.400000 0.550000
vt 0.450000 0.550000
vt 0.500000 0.550000
vt 0.550000 0.550000
vt 0.600000 0.550000
vt 0.650000 0.550000
vt 0.700000 0.550000
vt 0.750000 0.550000
vt 0.800000 0.550000
vt 0.850000 0.550000
vt 0.900000 0.550000
vt 0.950000 0.550000
vt 1.000000 0.550000
vt 0.000000 0.600000
vt 0.050000 0.600000
vt 0.100000 0.600000
vt 0.150000 0.600000
vt 0.200000 0.600000
vt 0.250000 0.600000
vt 0.300000 0.600000
vt 0.350000 0.600000
vt 0.400000 0.600000
vt 0.450000 0.600000
vt 0.500000 0.600000
vt 0.550000 0.600000
vt 0.600000 0.600000
vt 0.650000 0.600000
vt 0.700000 0.600000
vt 0.750000 0.600000
vt 0.800000 0.600000
vt 0.850000 0.600000
vt 0.900000 0.600000
vt 0.950000 0.600000
vt 1.000000 0.600000
vt 0.000000 0.650000
vt 0.050000 0.650000
vt 0.100000 0.650000
vt 0.150000 0.650000
vt 0.200000 0.650000
vt 0.250000 0.650000
vt 0.300000 0.650000
vt 0.350000 0.650000
vt 0.400000 0.650000
vt 0.450000 0.650000
vt 0.500000 0.650000
vt 0.550000 0.650000
vt 0.600000 0.650000
vt 0.650000 0.650000
vt 0.700000 0.650000
vt 0.750000 0.650000
vt 0.800000 0.650000
vt 0.850000 0.650000
vt 0.900000 0.650000
vt 0.950000 0.650000
vt 1.000000 0.650000
vt 0.000000 0.700000
vt 0.050000 0.700000
vt 0.100000 0.700000
vt 0.150000 0.700000
vt 0.200000 0.700000
vt 0.250000 0.700000
vt 0.300000 0.700000
vt 0.350000 0.700000
vt 0.400000 0.700000
vt 0.450000 0.700000
vt 0.500000 0.700000
vt 0.550000 0.700000
vt 0.600000 0.700000
vt 0.650000 0.700000
vt 0.700000 0.700000
vt 0.750000 0.700000
vt 0.800000 0.700000
vt 0.850000 0.700000
vt 0.900000 0.700000
vt 0.950000 0.700000
vt 1.000000 0.700000
vt 0.000000 0.750000
vt 0.050000 0.750000
vt 0.100000 0.750000
vt 0.150000 0.750000
vt 0.200000 0.750000
vt 0.250000 0.750000
vt 0.300000 0.750000
vt 0.350000 0.750000
vt 0.400000 0.750000
vt 0.450000 0.750000
vt 0.500000 0.750000
vt 0.550000 0.750000
vt 0.600000 0.750000
vt 0.650000 0.750000
vt 0.700000 0.750000
vt 0.750000 0.750000
vt 0.800000 0.750000
vt 0.850000 0.750000
vt 0.900000 0.750000
vt 0.950000 0.750000
vt 1.000000 0.750000
vt 0.000000 0.800000
vt 0.050000 0.800000
vt 0.100000 0.800000
vt 0.150000 0.800000
vt 0.200000 0.800000
vt 0.250000 0.800000
vt 0.300000 0.800000
vt 0.350000 0.800000
vt 0.400000 0.800000
vt 0.450000 0.800000
vt 0.500000 0.800000
vt 0.550000 0.800000
vt 0.600000 0.800000
vt 0.650000 0.800000
vt 0.700000 0.800000
vt 0.750000 0.800000
vt 0.800000 0.800000
vt 0.850000 0.800000
vt 0.900000 0.800000
vt 0.950000 0.800000
vt 1.000000 0.800000
vt 0.000000 0.850000
vt 0.050000 0.850000
vt 0.100000 0.850000
vt 0.150000 0.850000
vt 0.200000 0.850000
vt 0.250000 0.850000
vt 0.300000 0.850000
vt 0.350000 0.850000
vt 0.400000 0.850000
vt 0.450000 0.850000
vt 0.500000 0.850000
vt 0.550000 0.850000
vt 0.600000 0.850000
vt 0.650000 0.850000
vt 0.700000 0.850000
vt 0.750000 0.850000
vt 0.800000 0.850000
vt 0.850000 0.850000
vt 0.900000 0.850000
vt 0.950000 0.850000
vt 1.000000 0.850000
vt 0.000000 0.900000
vt 0.050000 0.900000
vt 0.100000 0.900000
vt 0.150000 0.900000
vt 0.200000 0.900000
vt 0.250000 0.900000
vt 0.300000 0.900000
vt 0.350000 0.900000
vt 0.400000 0.900000
vt 0.450000 0.900000
vt 0.500000 0.900000
vt 0.550000 0.900000
vt 0.600000 0.900000
vt 0.650000 0.900000
vt 0.700000 0.900000
vt 0.750000 0.900000
vt 0.800000 0.900000
vt 0.850000 0.900000
vt 0.900000 0.900000
vt 0.950000 0.900000
vt 1.000000 0.900000
vt 0.000000 0.950000
vt 0.050000 0.950000
vt 0.100000 0.950000
vt 0.150000 0.950000
vt 0.200000 0.950000
vt 0.250000 0.950000
vt 0.300000 0.950000
vt 0.350000 0.950000
vt 0.400000 0.950000
vt 0.450000 0.950000
vt 0.500000 0.950000
vt 0.550000 0.950000
vt 0.600000 0.950000
vt 0.650000 0.950000
vt 0.700000 0.950000
vt 0.750000 0.950000
vt 0.800000 0.950000
vt 0.850000 0.950000
vt 0.900000 0.950000
vt 0.950000 0.950000
vt 1.000000 0.950000
vt 0.000000 1.000000
vt 0.050000 1.000000
vt 0.100000 1.000000
vt 0.150000 1.000000
vt 0.200000 1.000000
vt 0.250000 1.000000
vt 0.300000 1.000000
vt 0.350000 1.000000
vt 0.400000 1.000000
vt 0.450000 1.000000
vt 0.500000 1.000000
vt 0.550000 1.000000
vt 0.600000 1.000000
vt 0.650000 1.000000
vt 0.700000 1.000000
vt 0.750000 1.000000
vt 0.800000 1.000000
vt 0.850000 1.000000
vt 0.900000 1.000000
vt 0.950000 1.000000
vt 1.000000 1.000000
vn 0.000000 1.000000 0.000000
vn 0.000000 1.000000 0.000000
vn 0.000000 1.000000 0.000000
vn 0.000000 1.000000 0.000000
vn 0.000000 1.000000 0.000000
vn 0.000000 1.000000 0.000000
vn 0.000000 1.000000 0.000000
vn 0.000000 1.000000 0.000000
vn 0.000000 1.000000 0.000000
vn 0.000000 1.000000 0.000000
vn 0.000000 1.000000 0.000000
vn 0.000000 1.000000 0.000000
vn 0.000000 1.000000 0.000000
vn -0.023220 0.999461 0.023220
vn -0.092532 0.995710 0.000000
vn -0.092434 0.994657 0.045970
vn -0.233260 0.972414 0.000000
vn -0.211678 0.977076 0.022700
vn -0.145385 0.989375 0.000000
vn -0.145385 0.989375 0.000000
vn 0.000000 1.000000 0.000000
vn 0.000000 1.000000 0.000000
vn 0.000000 1.000000 0.000000
vn 0.036687 0.998653 -0.036687
vn 0.145385 0.989375 0.000000
vn 0.145012 0.986838 -0.071576
vn 0.233260 0.972414 0.000000
vn 0.198945 0.979350 -0.035978
vn 0.092532 0.995710 0.000000
vn 0.092532 0.995710 0.000000
vn 0.000000 1.000000 0.000000
vn 0.000000 1.000000 0.000000
vn 0.000000 1.000000 0.000000
vn 0.000000 1.000000 0.000000
vn 0.000000 1.000000 0.000000
vn 0.000000 1.000000 0.000000
vn 0.000000 1.000000 0.000000
vn 0.000000 1.000000 0.000000
vn 0.000000 1.000000 0.000000
vn 0.000000 1.000000 0.000000
vn 0.000000 1.000000 0.000000
vn 0.000000 1.000000 0.000000
vn 0.000000 1.000000 0.000000
vn 0.000000 1.000000 0.000000
vn 0.000000 1.000000 0.000000
vn 0.000000 1.000000 0.000000
vn 0.000000 1.000000 0.000000
vn 0.000000 1.000000 0.000000
vn -0.069511 0.997312 0.023170
vn -0.092434 0.994657 0.045970
vn -0.167723 0.985568 0.022897
vn -0.145385 0.989375 0.000000
vn 0.000000 1.000000 0.000000
vn 0.109473 0.993320 -0.036491
vn 0.167304 0.981388 -0.094273
vn 0.128347 0.988319 -0.082179
vn 0.069511 0.997312 -0.023170
vn 0.000000 1.000000 0.000000
vn -0.064174 0.995873 0.064174
vn -0.063143 0.979862 0.189428
vn 0.000000 0.968348 0.249603
vn 0.063143 0.979862 0.189428
vn 0.126792 0.983792 0.126792
vn 0.000000 1.000000 0.000000
vn 0.000000 1.000000 0.000000
vn 0.000000 1.000000 0.000000
vn 0.000000 1.000000 0.000000
vn 0.000000 1.000000 0.000000
vn 0.000000 1.000000 0.000000
vn -0.069511 0.997312 -0.023170
vn -0.092434 0.994657 -0.045970
vn -0.132037 0.989467 -0.059338
vn -0.108440 0.988171 -0.108440
vn 0.000000 0.989375 -0.145385
vn 0.108440 0.988171 -0.108440
vn 0.176757 0.982489 -0.058919
vn 0.092434 0.994657 -0.045970
vn 0.023220 0.999461 -0.023220
vn -0.064174 0.995873 0.064174
vn -0.184460 0.965375 0.184460
vn -0.119589 0.961399 0.247812
vn 0.000000 0.968348 0.249603
vn 0.184460 0.965375 0.184460
vn 0.358048 0.926044 0.119349
vn 0.000000 1.000000 0.000000
vn 0.000000 1.000000 0.000000
vn 0.000000 1.000000 0.000000
vn 0.000000 1.000000 0.000000
vn 0.000000 1.000000 0.000000
vn 0.000000 1.000000 0.000000
vn -0.058634 0.998204 0.012252
vn -0.104721 0.993848 0.036054
vn -0.082936 0.996472 0.012819
vn -0.024390 0.997021 -0.073170
vn 0.012163 0.990980 -0.133457
vn -0.001412 0.997413 -0.071870
vn 0.091631 0.992650 0.079052
vn 0.090722 0.984669 0.148983
vn 0.037878 0.992800 0.113634
vn -0.152552 0.983135 0.100863
vn -0.247812 0.961399 0.119589
vn -0.064174 0.995873 0.064174
vn 0.000000 1.000000 0.000000
vn 0.249603 0.968348 0.000000
vn 0.458218 0.888840 0.000000
vn 0.000000 1.000000 0.000000
vn 0.000000 1.000000 0.000000
vn 0.000000 1.000000 0.000000
vn 0.000000 1.000000 0.000000
vn -0.034355 0.998819 0.034355
vn -0.034194 0.994137 0.102583
vn -0.102394 0.980365 0.168523
vn -0.094880 0.978345 0.183956
vn 0.011100 0.994292 0.106114
vn 0.059957 0.998110 0.013509
vn 0.060216 0.996538 -0.057326
vn -0.115113 0.991805 -0.055424
vn -0.043653 0.998092 0.043653
vn 0.069908 0.989120 0.129435
vn 0.112482 0.987267 0.112482
vn -0.141754 0.989182 0.037740
vn -0.249603 0.968348 0.000000
vn 0.000000 1.000000 0.000000
vn 0.064174 0.995873 -0.064174
vn 0.247812 0.961399 -0.119589
vn 0.358048 0.926044 -0.119349
vn 0.000000 0.981995 0.188906
vn 0.000000 0.981995 0.188906
vn 0.000000 0.981995 0.188906
vn 0.047546 0.988632 0.142637
vn -0.054827 0.995116 0.082086
vn -0.101729 0.989597 0.101729
vn -0.140857 0.980581 0.136453
vn -0.072304 0.988290 0.134366
vn 0.067225 0.988427 0.135992
vn 0.119021 0.986257 0.114591
vn 0.115229 0.991133 0.066157
vn -0.147587 0.988104 0.043228
vn -0.131505 0.989013 0.067530
vn 0.023076 0.993261 0.113581
vn 0.151234 0.979050 0.136344
vn -0.040633 0.996617 0.071443
vn -0.154663 0.983812 -0.090512
vn 0.033550 0.975401 -0.217871
vn 0.119589 0.961399 -0.247812
vn 0.184460 0.965375 -0.184460
vn 0.126792 0.983792 -0.126792
vn 0.000000 0.948577 0.316546
vn 0.000000 0.948577 0.316546
vn 0.033840 0.957706 0.285752
vn 0.125958 0.967121 0.220935
vn 0.004098 0.989991 0.141067
vn -0.089033 0.994879 0.047846
vn -0.105854 0.993755 -0.035285
vn -0.070922 0.994957 -0.070922
vn 0.034350 0.998657 -0.038785
vn 0.103383 0.994186 0.030111
vn 0.107339 0.988883 0.102897
vn -0.115409 0.988233 0.100378
vn -0.110795 0.993594 0.022240
vn 0.000000 0.999887 -0.015024
vn 0.110795 0.993594 0.022240
vn 0.053015 0.997877 0.037838
vn 0.039513 0.994931 -0.092476
vn 0.099609 0.971724 -0.214079
vn 0.063143 0.979862 -0.189428
vn 0.064174 0.995873 -0.064174
vn 0.000000 1.000000 0.000000
vn 0.000000 0.990159 0.139945
vn 0.000000 0.990159 0.139945
vn 0.104423 0.989036 0.104423
vn 0.151782 0.984992 0.082174
vn 0.055310 0.993939 0.095003
vn 0.006685 0.998823 0.048036
vn -0.035462 0.998742 -0.035462
vn -0.035285 0.993755 -0.105854
vn 0.000000 0.990064 -0.140614
vn 0.035285 0.993755 -0.105854
vn 0.035462 0.998742 -0.035462
vn -0.038097 0.998548 -0.038097
vn -0.037878 0.992800 -0.113634
vn 0.000000 0.988555 -0.150864
vn 0.037878 0.992800 -0.113634
vn 0.038097 0.998548 -0.038097
vn 0.136300 0.990668 0.000000
vn 0.136300 0.990668 0.000000
vn 0.000000 1.000000 0.000000
vn 0.000000 1.000000 0.000000
vn 0.000000 1.000000 0.000000
vn 0.000000 1.000000 0.000000
vn 0.000000 1.000000 0.000000
vn 0.139945 0.990159 0.000000
vn 0.139945 0.990159 0.000000
vn 0.054703 0.998503 0.000000
vn 0.054703 0.998503 0.000000
vn 0.000000 1.000000 0.000000
vn 0.000000 1.000000 0.000000
vn -0.023805 0.999433 0.023805
vn -0.023751 0.997175 0.071253
vn 0.000000 0.995492 0.094843
vn 0.023751 0.997175 0.071253
vn 0.023805 0.999433 0.023805
vn 0.000000 1.000000 0.000000
vn 0.000000 1.000000 0.000000
vn 0.000000 1.000000 0.000000
vn 0.136300 0.990668 0.000000
vn 0.136300 0.990668 0.000000
vn 0.000000 1.000000 0.000000
vn 0.000000 1.000000 0.000000
vn 0.000000 1.000000 0.000000
vn 0.000000 1.000000 0.000000
vn 0.000000 1.000000 0.000000
vn 0.105346 0.993815 0.035115
vn 0.139612 0.987801 0.068973
vn 0.041845 0.995665 0.083065
vn 0.055310 0.993939 0.095003
vn 0.047982 0.997695 0.047982
vn 0.000000 1.000000 0.000000
vn -0.071253 0.997175 0.023751
vn -0.070961 0.994952 0.070961
vn 0.000000 0.995492 0.094843
vn 0.047103 0.994387 0.094738
vn 0.070961 0.994952 0.070961
vn 0.023805 0.999433 0.023805
vn 0.000000 1.000000 0.000000
vn 0.000000 1.000000 0.000000
vn 0.136300 0.990668 0.000000
vn 0.136300 0.990668 0.000000
vn 0.000000 1.000000 0.000000
vn 0.000000 1.000000 0.000000
vn 0.000000 1.000000 0.000000
vn 0.000000 1.000000 0.000000
vn 0.000000 1.000000 0.000000
vn 0.035290 0.998754 0.035290
vn 0.139612 0.987801 0.068973
vn 0.016450 0.996403 0.083126
vn 0.004098 0.989991 0.141068
vn 0.140414 0.980086 0.140414
vn 0.047982 0.997695 0.047982
vn -0.094843 0.995492 0.000000
vn -0.094843 0.995492 0.000000
vn 0.000000 1.000000 0.000000
vn 0.023805 0.999433 0.023805
vn 0.094738 0.994387 0.047103
vn 0.071253 0.997175 0.023751
vn 0.000000 1.000000 0.000000
vn 0.000000 1.000000 0.000000
vn 0.136300 0.990668 0.000000
vn 0.136300 0.990668 0.000000
vn 0.000000 1.000000 0.000000
vn 0.000000 1.000000 0.000000
vn 0.000000 1.000000 0.000000
vn 0.000000 1.000000 0.000000
vn 0.000000 1.000000 0.000000
vn 0.000000 1.000000 0.000000
vn 0.105346 0.993815 0.035115
vn 0.003702 0.997622 0.068819
vn -0.053892 0.995090 0.083017
vn 0.188104 0.977824 0.092076
vn 0.142637 0.988632 0.047546
vn -0.094843 0.995492 0.000000
vn -0.094843 0.995492 0.000000
vn 0.000000 1.000000 0.000000
vn 0.000000 1.000000 0.000000
vn 0.094843 0.995492 0.000000
vn 0.061529 0.997543 0.033510
vn -0.033404 0.994405 0.100213
vn 0.034205 0.994458 0.099419
vn 0.136014 0.988585 0.064811
vn 0.101769 0.989907 0.098622
vn 0.000000 0.991093 0.133172
vn 0.033404 0.994405 0.100213
vn 0.066883 0.995517 0.066883
vn 0.000000 1.000000 0.000000
vn 0.000000 1.000000 0.000000
vn 0.000000 1.000000 0.000000
vn 0.035290 0.998754 0.035290
vn 0.003787 0.997507 0.070469
vn -0.031547 0.998879 0.035294
vn 0.188906 0.981995 0.000000
vn 0.188906 0.981995 0.000000
vn -0.094844 0.995492 0.000000
vn -0.094844 0.995492 0.000000
vn 0.000000 1.000000 0.000000
vn 0.000000 1.000000 0.000000
vn 0.094844 0.995492 0.000000
vn -0.005501 0.999421 0.033573
vn -0.099415 0.990067 0.099415
vn 0.101769 0.989907 0.098622
vn 0.136014 0.988585 0.064811
vn 0.034205 0.994458 0.099419
vn 0.000000 0.991093 0.133172
vn 0.099415 0.990067 0.099415
vn 0.197153 0.978168 0.065718
vn 0.000000 1.000000 0.000000
vn 0.000000 1.000000 0.000000
vn 0.000000 1.000000 0.000000
vn 0.000000 1.000000 0.000000
vn 0.038097 0.998683 -0.034351
vn 0.037952 0.994000 -0.102580
vn 0.184468 0.973943 -0.131933
vn 0.189854 0.972377 -0.135785
vn -0.070532 0.984510 -0.160517
vn -0.069506 0.976876 -0.202195
vn 0.000000 0.973944 -0.226790
vn 0.000000 0.973944 -0.226790
vn 0.069506 0.976876 -0.202195
vn -0.062933 0.984822 -0.161756
vn -0.130539 0.982392 -0.133663
vn 0.064649 0.995812 -0.064649
vn 0.064679 0.994399 0.083587
vn 0.000000 0.987922 0.154951
vn 0.038913 0.992400 0.116740
vn 0.170896 0.984533 0.038605
vn 0.259530 0.965735 0.000000
vn 0.000000 1.000000 0.000000
vn 0.000000 1.000000 0.000000
vn 0.000000 1.000000 0.000000
vn 0.000000 1.000000 0.000000
vn 0.106271 0.993749 -0.034181
vn 0.105348 0.989223 -0.101681
vn 0.189854 0.972377 -0.135785
vn 0.184468 0.973943 -0.131933
vn -0.023507 0.986951 -0.159296
vn -0.023308 0.978576 -0.204561
vn 0.000000 0.973944 -0.226790
vn 0.000000 0.973944 -0.226790
vn 0.023308 0.978576 -0.204561
vn -0.106813 0.981770 -0.157221
vn -0.171177 0.980322 -0.098317
vn -0.082699 0.996499 0.012251
vn -0.044005 0.991445 0.122883
vn 0.000000 0.987922 0.154951
vn 0.076132 0.985055 0.154501
vn 0.245972 0.962648 0.113168
vn 0.327064 0.942110 0.073883
vn 0.035290 0.998754 -0.035290
vn 0.000000 1.000000 0.000000
vn 0.035115 0.993815 -0.105346
vn 0.000000 0.990159 -0.139945
vn 0.104423 0.989036 -0.104423
vn 0.105346 0.993815 -0.035115
vn 0.188906 0.981995 -0.000000
vn 0.188906 0.981995 0.000000
vn 0.000000 1.000000 0.000000
vn -0.033537 0.998875 0.033537
vn -0.033387 0.994411 0.100161
vn 0.000000 0.991102 0.133104
vn 0.000000 0.991102 0.133104
vn -0.099433 0.990071 0.099364
vn -0.212859 0.974505 0.070930
vn -0.154501 0.985055 0.076132
vn -0.039151 0.998466 0.039151
vn 0.000000 1.000000 0.000000
vn 0.039151 0.998466 0.039151
vn 0.275919 0.958382 0.073305
vn 0.448974 0.890810 0.069860
vn 0.020783 0.982212 -0.186622
vn -0.093174 0.968700 -0.230086
vn 0.068973 0.987801 -0.139612
vn 0.000000 0.990159 -0.139945
vn 0.082174 0.984992 -0.151782
vn 0.081837 0.980949 -0.176189
vn 0.140414 0.980086 -0.140414
vn 0.142637 0.988632 -0.047546
vn -0.033537 0.998875 0.033537
vn -0.099365 0.990077 0.099365
vn -0.065689 0.988961 0.132817
vn 0.000000 0.991102 0.133104
vn 0.000000 0.991102 0.133104
vn -0.033457 0.994409 0.100161
vn -0.187023 0.981802 0.032964
vn -0.154951 0.987922 0.000000
vn 0.000000 1.000000 0.000000
vn 0.000000 1.000000 0.000000
vn 0.000000 1.000000 0.000000
vn 0.279600 0.960117 0.000000
vn 0.503288 0.864119 0.000000
vn -0.057502 0.955362 -0.289788
vn -0.180011 0.935756 -0.303242
vn 0.034432 0.974464 -0.221889
vn 0.000000 0.981995 -0.188906
vn 0.092076 0.977824 -0.188104
vn 0.092076 0.977824 -0.188104
vn 0.047546 0.988632 -0.142637
vn 0.047982 0.997695 -0.047982
vn -0.100161 0.994411 0.033387
vn -0.132817 0.988961 0.065689
vn -0.033537 0.998875 0.033537
vn 0.000000 1.000000 0.000000
vn 0.000000 1.000000 0.000000
vn 0.033484 0.998876 -0.033555
vn -0.124027 0.987074 -0.101501
vn -0.151756 0.979830 -0.130009
vn 0.000000 0.991093 -0.133172
vn 0.000000 0.991093 -0.133172
vn 0.000000 0.991093 -0.133172
vn 0.244641 0.964796 -0.096539
vn 0.457207 0.887360 -0.059617
vn -0.047546 0.988632 -0.142637
vn -0.095307 0.990875 -0.095307
vn 0.000000 0.981995 -0.188906
vn 0.000000 0.981995 -0.188906
vn 0.047546 0.988632 -0.142637
vn 0.047982 0.997695 -0.047982
vn 0.000000 1.000000 0.000000
vn 0.000000 1.000000 0.000000
vn -0.133104 0.991102 0.000000
vn -0.133104 0.991102 0.000000
vn 0.000000 1.000000 0.000000
vn 0.000000 1.000000 0.000000
vn 0.033537 0.998875 -0.033537
vn 0.099347 0.990077 -0.099382
vn -0.048420 0.984243 -0.170065
vn -0.153427 0.966225 -0.207048
vn -0.038605 0.984533 -0.170896
vn 0.000000 0.991093 -0.133172
vn 0.038605 0.984533 -0.170896
vn 0.187681 0.966869 -0.173034
vn 0.286729 0.948015 -0.138038
vn 0.000000 1.000000 0.000000
vn 0.000000 1.000000 0.000000
vn 0.000000 1.000000 0.000000
vn 0.000000 1.000000 0.000000
vn 0.000000 1.000000 0.000000
vn 0.000000 1.000000 0.000000
vn 0.000000 1.000000 0.000000
vn 0.000000 1.000000 0.000000
vn -0.133104 0.991102 0.000000
vn -0.133104 0.991102 0.000000
vn 0.000000 1.000000 0.000000
vn 0.000000 1.000000 0.000000
vn 0.066849 0.995521 -0.066849
vn 0.131940 0.982438 -0.131940
vn -0.011155 0.989508 -0.144045
vn -0.153123 0.976272 -0.153123
vn -0.077945 0.993906 -0.077945
vn 0.000000 1.000000 0.000000
vn 0.077945 0.993906 -0.077945
vn 0.153123 0.976272 -0.153123
vn 0.153123 0.976272 -0.153123
s 1
g pPlane1
usemtl lambert2SG
f 1/1/1 2/2/2 23/23/3 22/22/4
f 2/2/2 3/3/5 24/24/6 23/23/3
f 3/3/5 4/4/7 25/25/8 24/24/6
f 4/4/7 5/5/9 26/26/10 25/25/8
f 5/5/9 6/6/11 27/27/12 26/26/10
f 6/6/11 7/7/13 28/28/14 27/27/12
f 7/7/13 8/8/15 29/29/16 28/28/14
f 8/8/15 9/9/17 30/30/18 29/29/16
f 9/9/17 10/10/19 31/31/20 30/30/18
f 10/10/19 11/11/21 32/32/22 31/31/20
f 11/11/21 12/12/23 33/33/24 32/32/22
f 12/12/23 13/13/25 34/34/26 33/33/24
f 13/13/25 14/14/27 35/35/28 34/34/26
f 14/14/27 15/15/29 36/36/30 35/35/28
f 15/15/29 16/16/31 37/37/32 36/36/30
f 16/16/31 17/17/33 38/38/34 37/37/32
f 17/17/33 18/18/35 39/39/36 38/38/34
f 18/18/35 19/19/37 40/40/38 39/39/36
f 19/19/37 20/20/39 41/41/40 40/40/38
f 20/20/39 21/21/41 42/42/42 41/41/40
f 22/22/4 23/23/3 44/44/43 43/43/44
f 23/23/3 24/24/6 45/45/45 44/44/43
f 24/24/6 25/25/8 46/46/46 45/45/45
f 25/25/8 26/26/10 47/47/47 46/46/46
f 26/26/10 27/27/12 48/48/48 47/47/47
f 27/27/12 28/28/14 49/49/49 48/48/48
f 28/28/14 29/29/16 50/50/50 49/49/49
f 29/29/16 30/30/18 51/51/51 50/50/50
f 30/30/18 31/31/20 52/52/52 51/51/51
f 31/31/20 32/32/22 53/53/53 52/52/52
f 32/32/22 33/33/24 54/54/54 53/53/53
f 33/33/24 34/34/26 55/55/55 54/54/54
f 34/34/26 35/35/28 56/56/56 55/55/55
f 35/35/28 36/36/30 57/57/57 56/56/56
f 36/36/30 37/37/32 58/58/58 57/57/57
f 37/37/32 38/38/34 59/59/59 58/58/58
f 38/38/34 39/39/36 60/60/60 59/59/59
f 39/39/36 40/40/38 61/61/61 60/60/60
f 40/40/38 41/41/40 62/62/62 61/61/61
f 41/41/40 42/42/42 63/63/63 62/62/62
f 43/43/44 44/44/43 65/65/64 64/64/65
f 44/44/43 45/45/45 66/66/66 65/65/64
f 45/45/45 46/46/46 67/67/67 66/66/66
f 46/46/46 47/47/47 68/68/68 67/67/67
f 47/47/47 48/48/48 69/69/69 68/68/68
f 48/48/48 49/49/49 70/70/70 69/69/69
f 49/49/49 50/50/50 71/71/71 70/70/70
f 50/50/50 51/51/51 72/72/72 71/71/71
f 51/51/51 52/52/52 73/73/73 72/72/72
f 52/52/52 53/53/53 74/74/74 73/73/73
f 53/53/53 54/54/54 75/75/75 74/74/74
f 54/54/54 55/55/55 76/76/76 75/75/75
f 55/55/55 56/56/56 77/77/77 76/76/76
f 56/56/56 57/57/57 78/78/78 77/77/77
f 57/57/57 58/58/58 79/79/79 78/78/78
f 58/58/58 59/59/59 80/80/80 79/79/79
f 59/59/59 60/60/60 81/81/81 80/80/80
f 60/60/60 61/61/61 82/82/82 81/81/81
f 61/61/61 62/62/62 83/83/83 82/82/82
f 62/62/62 63/63/63 84/84/84 83/83/83
f 64/64/65 65/65/64 86/86/85 85/85/86
f 65/65/64 66/66/66 87/87/87 86/86/85
f 66/66/66 67/67/67 88/88/88 87/87/87
f 67/67/67 68/68/68 89/89/89 88/88/88
f 68/68/68 69/69/69 90/90/90 89/89/89
f 69/69/69 70/70/70 91/91/91 90/90/90
f 70/70/70 71/71/71 92/92/92 91/91/91
f 71/71/71 72/72/72 93/93/93 92/92/92
f 72/72/72 73/73/73 94/94/94 93/93/93
f 73/73/73 74/74/74 95/95/95 94/94/94
f 74/74/74 75/75/75 96/96/96 95/95/95
f 75/75/75 76/76/76 97/97/97 96/96/96
f 76/76/76 77/77/77 98/98/98 97/97/97
f 77/77/77 78/78/78 99/99/99 98/98/98
f 78/78/78 79/79/79 100/100/100 99/99/99
f 79/79/79 80/80/80 101/101/101 100/100/100
f 80/80/80 81/81/81 102/102/102 101/101/101
f 81/81/81 82/82/82 103/103/103 102/102/102
f 82/82/82 83/83/83 104/104/104 103/103/103
f 83/83/83 84/84/84 105/105/105 104/104/104
f 85/85/86 86/86/85 107/107/106 106/106/107
f 86/86/85 87/87/87 108/108/108 107/107/106
f 87/87/87 88/88/88 109/109/109 108/108/108
f 88/88/88 89/89/89 110/110/110 109/109/109
f 89/89/89 90/90/90 111/111/111 110/110/110
f 90/90/90 91/91/91 112/112/112 111/111/111
f 91/91/91 92/92/92 113/113/113 112/112/112
f 92/92/92 93/93/93 114/114/114 113/113/113
f 93/93/93 94/94/94 115/115/115 114/114/114
f 94/94/94 95/95/95 116/116/116 115/115/115
f 95/95/95 96/96/96 117/117/117 116/116/116
f 96/96/96 97/97/97 118/118/118 117/117/117
f 97/97/97 98/98/98 119/119/119 118/118/118
f 98/98/98 99/99/99 120/120/120 119/119/119
f 99/99/99 100/100/100 121/121/121 120/120/120
f 100/100/100 101/101/101 122/122/122 121/121/121
f 101/101/101 102/102/102 123/123/123 122/122/122
f 102/102/102 103/103/103 124/124/124 123/123/123
f 103/103/103 104/104/104 125/125/125 124/124/124
f 104/104/104 105/105/105 126/126/126 125/125/125
f 106/106/107 107/107/106 128/128/127 127/127/128
f 107/107/106 108/108/108 129/129/129 128/128/127
f 108/108/108 109/109/109 130/130/130 129/129/129
f 109/109/109 110/110/110 131/131/131 130/130/130
f 110/110/110 111/111/111 132/132/132 131/131/131
f 111/111/111 112/112/112 133/133/133 132/132/132
f 112/112/112 113/113/113 134/134/134 133/133/133
f 113/113/113 114/114/114 135/135/135 134/134/134
f 114/114/114 115/115/115 136/136/136 135/135/135
f 115/115/115 116/116/116 137/137/137 136/136/136
f 116/116/116 117/117/117 138/138/138 137/137/137
f 117/117/117 118/118/118 139/139/139 138/138/138
f 118/118/118 119/119/119 140/140/140 139/139/139
f 119/119/119 120/120/120 141/141/141 140/140/140
f 120/120/120 121/121/121 142/142/142 141/141/141
f 121/121/121 122/122/122 143/143/143 142/142/142
f 122/122/122 123/123/123 144/144/144 143/143/143
f 123/123/123 124/124/124 145/145/145 144/144/144
f 124/124/124 125/125/125 146/146/146 145/145/145
f 125/125/125 126/126/126 147/147/147 146/146/146
f 127/127/128 128/128/127 149/149/148 148/148/149
f 128/128/127 129/129/129 150/150/150 149/149/148
f 129/129/129 130/130/130 151/151/151 150/150/150
f 130/130/130 131/131/131 152/152/152 151/151/151
f 131/131/131 132/132/132 153/153/153 152/152/152
f 132/132/132 133/133/133 154/154/154 153/153/153
f 133/133/133 134/134/134 155/155/155 154/154/154
f 134/134/134 135/135/135 156/156/156 155/155/155
f 135/135/135 136/136/136 157/157/157 156/156/156
f 136/136/136 137/137/137 158/158/158 157/157/157
f 137/137/137 138/138/138 159/159/159 158/158/158
f 138/138/138 139/139/139 160/160/160 159/159/159
f 139/139/139 140/140/140 161/161/161 160/160/160
f 140/140/140 141/141/141 162/162/162 161/161/161
f 141/141/141 142/142/142 163/163/163 162/162/162
f 142/142/142 143/143/143 164/164/164 163/163/163
f 143/143/143 144/144/144 165/165/165 164/164/164
f 144/144/144 145/145/145 166/166/166 165/165/165
f 145/145/145 146/146/146 167/167/167 166/166/166
f 146/146/146 147/147/147 168/168/168 167/167/167
f 148/148/149 149/149/148 170/170/169 169/169/170
f 149/149/148 150/150/150 171/171/171 170/170/169
f 150/150/150 151/151/151 172/172/172 171/171/171
f 151/151/151 152/152/152 173/173/173 172/172/172
f 152/152/152 153/153/153 174/174/174 173/173/173
f 153/153/153 154/154/154 175/175/175 174/174/174
f 154/154/154 155/155/155 176/176/176 175/175/175
f 155/155/155 156/156/156 177/177/177 176/176/176
f 156/156/156 157/157/157 178/178/178 177/177/177
f 157/157/157 158/158/158 179/179/179 178/178/178
f 158/158/158 159/159/159 180/180/180 179/179/179
f 159/159/159 160/160/160 181/181/181 180/180/180
f 160/160/160 161/161/161 182/182/182 181/181/181
f 161/161/161 162/162/162 183/183/183 182/182/182
f 162/162/162 163/163/163 184/184/184 183/183/183
f 163/163/163 164/164/164 185/185/185 184/184/184
f 164/164/164 165/165/165 186/186/186 185/185/185
f 165/165/165 166/166/166 187/187/187 186/186/186
f 166/166/166 167/167/167 188/188/188 187/187/187
f 167/167/167 168/168/168 189/189/189 188/188/188
f 169/169/170 170/170/169 191/191/190 190/190/191
f 170/170/169 171/171/171 192/192/192 191/191/190
f 171/171/171 172/172/172 193/193/193 192/192/192
f 172/172/172 173/173/173 194/194/194 193/193/193
f 173/173/173 174/174/174 195/195/195 194/194/194
f 174/174/174 175/175/175 196/196/196 195/195/195
f 175/175/175 176/176/176 197/197/197 196/196/196
f 176/176/176 177/177/177 198/198/198 197/197/197
f 177/177/177 178/178/178 199/199/199 198/198/198
f 178/178/178 179/179/179 200/200/200 199/199/199
f 179/179/179 180/180/180 201/201/201 200/200/200
f 180/180/180 181/181/181 202/202/202 201/201/201
f 181/181/181 182/182/182 203/203/203 202/202/202
f 182/182/182 183/183/183 204/204/204 203/203/203
f 183/183/183 184/184/184 205/205/205 204/204/204
f 184/184/184 185/185/185 206/206/206 205/205/205
f 185/185/185 186/186/186 207/207/207 206/206/206
f 186/186/186 187/187/187 208/208/208 207/207/207
f 187/187/187 188/188/188 209/209/209 208/208/208
f 188/188/188 189/189/189 210/210/210 209/209/209
f 190/190/191 191/191/190 212/212/211 211/211/212
f 191/191/190 192/192/192 213/213/213 212/212/211
f 192/192/192 193/193/193 214/214/214 213/213/213
f 193/193/193 194/194/194 215/215/215 214/214/214
f 194/194/194 195/195/195 216/216/216 215/215/215
f 195/195/195 196/196/196 217/217/217 216/216/216
f 196/196/196 197/197/197 218/218/218 217/217/217
f 197/197/197 198/198/198 219/219/219 218/218/218
f 198/198/198 199/199/199 220/220/220 219/219/219
f 199/199/199 200/200/200 221/221/221 220/220/220
f 200/200/200 201/201/201 222/222/222 221/221/221
f 201/201/201 202/202/202 223/223/223 222/222/222
f 202/202/202 203/203/203 224/224/224 223/223/223
f 203/203/203 204/204/204 225/225/225 224/224/224
f 204/204/204 205/205/205 226/226/226 225/225/225
f 205/205/205 206/206/206 227/227/227 226/226/226
f 206/206/206 207/207/207 228/228/228 227/227/227
f 207/207/207 208/208/208 229/229/229 228/228/228
f 208/208/208 209/209/209 230/230/230 229/229/229
f 209/209/209 210/210/210 231/231/231 230/230/230
f 211/211/212 212/212/211 233/233/232 232/232/233
f 212/212/211 213/213/213 234/234/234 233/233/232
f 213/213/213 214/214/214 235/235/235 234/234/234
f 214/214/214 215/215/215 236/236/236 235/235/235
f 215/215/215 216/216/216 237/237/237 236/236/236
f 216/216/216 217/217/217 238/238/238 237/237/237
f 217/217/217 218/218/218 239/239/239 238/238/238
f 218/218/218 219/219/219 240/240/240 239/239/239
f 219/219/219 220/220/220 241/241/241 240/240/240
f 220/220/220 221/221/221 242/242/242 241/241/241
f 221/221/221 222/222/222 243/243/243 242/242/242
f 222/222/222 223/223/223 244/244/244 243/243/243
f 223/223/223 224/224/224 245/245/245 244/244/244
f 224/224/224 225/225/225 246/246/246 245/245/245
f 225/225/225 226/226/226 247/247/247 246/246/246
f 226/226/226 227/227/227 248/248/248 247/247/247
f 227/227/227 228/228/228 249/249/249 248/248/248
f 228/228/228 229/229/229 250/250/250 249/249/249
f 229/229/229 230/230/230 251/251/251 250/250/250
f 230/230/230 231/231/231 252/252/252 251/251/251
f 232/232/233 233/233/232 254/254/253 253/253/254
f 233/233/232 234/234/234 255/255/255 254/254/253
f 234/234/234 235/235/235 256/256/256 255/255/255
f 235/235/235 236/236/236 257/257/257 256/256/256
f 236/236/236 237/237/237 258/258/258 257/257/257
f 237/237/237 238/238/238 259/259/259 258/258/258
f 238/238/238 239/239/239 260/260/260 259/259/259
f 239/239/239 240/240/240 261/261/261 260/260/260
f 240/240/240 241/241/241 262/262/262 261/261/261
f 241/241/241 242/242/242 263/263/263 262/262/262
f 242/242/242 243/243/243 264/264/264 263/263/263
f 243/243/243 244/244/244 265/265/265 264/264/264
f 244/244/244 245/245/245 266/266/266 265/265/265
f 245/245/245 246/246/246 267/267/267 266/266/266
f 246/246/246 247/247/247 268/268/268 267/267/267
f 247/247/247 248/248/248 269/269/269 268/268/268
f 248/248/248 249/249/249 270/270/270 269/269/269
f 249/249/249 250/250/250 271/271/271 270/270/270
f 250/250/250 251/251/251 272/272/272 271/271/271
f 251/251/251 252/252/252 273/273/273 272/272/272
f 253/253/254 254/254/253 275/275/274 274/274/275
f 254/254/253 255/255/255 276/276/276 275/275/274
f 255/255/255 256/256/256 277/277/277 276/276/276
f 256/256/256 257/257/257 278/278/278 277/277/277
f 257/257/257 258/258/258 279/279/279 278/278/278
f 258/258/258 259/259/259 280/280/280 279/279/279
f 259/259/259 260/260/260 281/281/281 280/280/280
f 260/260/260 261/261/261 282/282/282 281/281/281
f 261/261/261 262/262/262 283/283/283 282/282/282
f 262/262/262 263/263/263 284/284/284 283/283/283
f 263/263/263 264/264/264 285/285/285 284/284/284
f 264/264/264 265/265/265 286/286/286 285/285/285
f 265/265/265 266/266/266 287/287/287 286/286/286
f 266/266/266 267/267/267 288/288/288 287/287/287
f 267/267/267 268/268/268 289/289/289 288/288/288
f 268/268/268 269/269/269 290/290/290 289/289/289
f 269/269/269 270/270/270 291/291/291 290/290/290
f 270/270/270 271/271/271 292/292/292 291/291/291
f 271/271/271 272/272/272 293/293/293 292/292/292
f 272/272/272 273/273/273 294/294/294 293/293/293
f 274/274/275 275/275/274 296/296/295 295/295/296
f 275/275/274 276/276/276 297/297/297 296/296/295
f 276/276/276 277/277/277 298/298/298 297/297/297
f 277/277/277 278/278/278 299/299/299 298/298/298
f 278/278/278 279/279/279 300/300/300 299/299/299
f 279/279/279 280/280/280 301/301/301 300/300/300
f 280/280/280 281/281/281 302/302/302 301/301/301
f 281/281/281 282/282/282 303/303/303 302/302/302
f 282/282/282 283/283/283 304/304/304 303/303/303
f 283/283/283 284/284/284 305/305/305 304/304/304
f 284/284/284 285/285/285 306/306/306 305/305/305
f 285/285/285 286/286/286 307/307/307 306/306/306
f 286/286/286 287/287/287 308/308/308 307/307/307
f 287/287/287 288/288/288 309/309/309 308/308/308
f 288/288/288 289/289/289 310/310/310 309/309/309
f 289/289/289 290/290/290 311/311/311 310/310/310
f 290/290/290 291/291/291 312/312/312 311/311/311
f 291/291/291 292/292/292 313/313/313 312/312/312
f 292/292/292 293/293/293 314/314/314 313/313/313
f 293/293/293 294/294/294 315/315/315 314/314/314
f 295/295/296 296/296/295 317/317/316 316/316/317
f 296/296/295 297/297/297 318/318/318 317/317/316
f 297/297/297 298/298/298 319/319/319 318/318/318
f 298/298/298 299/299/299 320/320/320 319/319/319
f 299/299/299 300/300/300 321/321/321 320/320/320
f 300/300/300 301/301/301 322/322/322 321/321/321
f 301/301/301 302/302/302 323/323/323 322/322/322
f 302/302/302 303/303/303 324/324/324 323/323/323
f 303/303/303 304/304/304 325/325/325 324/324/324
f 304/304/304 305/305/305 326/326/326 325/325/325
f 305/305/305 306/306/306 327/327/327 326/326/326
f 306/306/306 307/307/307 328/328/328 327/327/327
f 307/307/307 308/308/308 329/329/329 328/328/328
f 308/308/308 309/309/309 330/330/330 329/329/329
f 309/309/309 310/310/310 331/331/331 330/330/330
f 310/310/310 311/311/311 332/332/332 331/331/331
f 311/311/311 312/312/312 333/333/333 332/332/332
f 312/312/312 313/313/313 334/334/334 333/333/333
f 313/313/313 314/314/314 335/335/335 334/334/334
f 314/314/314 315/315/315 336/336/336 335/335/335
f 316/316/317 317/317/316 338/338/337 337/337/338
f 317/317/316 318/318/318 339/339/339 338/338/337
f 318/318/318 319/319/319 340/340/340 339/339/339
f 319/319/319 320/320/320 341/341/341 340/340/340
f 320/320/320 321/321/321 342/342/342 341/341/341
f 321/321/321 322/322/322 343/343/343 342/342/342
f 322/322/322 323/323/323 344/344/344 343/343/343
f 323/323/323 324/324/324 345/345/345 344/344/344
f 324/324/324 325/325/325 346/346/346 345/345/345
f 325/325/325 326/326/326 347/347/347 346/346/346
f 326/326/326 327/327/327 348/348/348 347/347/347
f 327/327/327 328/328/328 349/349/349 348/348/348
f 328/328/328 329/329/329 350/350/350 349/349/349
f 329/329/329 330/330/330 351/351/351 350/350/350
f 330/330/330 331/331/331 352/352/352 351/351/351
f 331/331/331 332/332/332 353/353/353 352/352/352
f 332/332/332 333/333/333 354/354/354 353/353/353
f 333/333/333 334/334/334 355/355/355 354/354/354
f 334/334/334 335/335/335 356/356/356 355/355/355
f 335/335/335 336/336/336 357/357/357 356/356/356
f 337/337/338 338/338/337 359/359/358 358/358/359
f 338/338/337 339/339/339 360/360/360 359/359/358
f 339/339/339 340/340/340 361/361/361 360/360/360
f 340/340/340 341/341/341 362/362/362 361/361/361
f 341/341/341 342/342/342 363/363/363 362/362/362
f 342/342/342 343/343/343 364/364/364 363/363/363
f 343/343/343 344/344/344 365/365/365 364/364/364
f 344/344/344 345/345/345 366/366/366 365/365/365
f 345/345/345 346/346/346 367/367/367 366/366/366
f 346/346/346 347/347/347 368/368/368 367/367/367
f 347/347/347 348/348/348 369/369/369 368/368/368
f 348/348/348 349/349/349 370/370/370 369/369/369
f 349/349/349 350/350/350 371/371/371 370/370/370
f 350/350/350 351/351/351 372/372/372 371/371/371
f 351/351/351 352/352/352 373/373/373 372/372/372
f 352/352/352 353/353/353 374/374/374 373/373/373
f 353/353/353 354/354/354 375/375/375 374/374/374
f 354/354/354 355/355/355 376/376/376 375/375/375
f 355/355/355 356/356/356 377/377/377 376/376/376
f 356/356/356 357/357/357 378/378/378 377/377/377
f 358/358/359 359/359/358 380/380/379 379/379/380
f 359/359/358 360/360/360 381/381/381 380/380/379
f 360/360/360 361/361/361 382/382/382 381/381/381
f 361/361/361 362/362/362 383/383/383 382/382/382
f 362/362/362 363/363/363 384/384/384 383/383/383
f 363/363/363 364/364/364 385/385/385 384/384/384
f 364/364/364 365/365/365 386/386/386 385/385/385
f 365/365/365 366/366/366 387/387/387 386/386/386
f 366/366/366 367/367/367 388/388/388 387/387/387
f 367/367/367 368/368/368 389/389/389 388/388/388
f 368/368/368 369/369/369 390/390/390 389/389/389
f 369/369/369 370/370/370 391/391/391 390/390/390
f 370/370/370 371/371/371 392/392/392 391/391/391
f 371/371/371 372/372/372 393/393/393 392/392/392
f 372/372/372 373/373/373 394/394/394 393/393/393
f 373/373/373 374/374/374 395/395/395 394/394/394
f 374/374/374 375/375/375 396/396/396 395/395/395
f 375/375/375 376/376/376 397/397/397 396/396/396
f 376/376/376 377/377/377 398/398/398 397/397/397
f 377/377/377 378/378/378 399/399/399 398/398/398
f 379/379/380 380/380/379 401/401/400 400/400/401
f 380/380/379 381/381/381 402/402/402 401/401/400
f 381/381/381 382/382/382 403/403/403 402/402/402
f 382/382/382 383/383/383 404/404/404 403/403/403
f 383/383/383 384/384/384 405/405/405 404/404/404
f 384/384/384 385/385/385 406/406/406 405/405/405
f 385/385/385 386/386/386 407/407/407 406/406/406
f 386/386/386 387/387/387 408/408/408 407/407/407
f 387/387/387 388/388/388 409/409/409 408/408/408
f 388/388/388 389/389/389 410/410/410 409/409/409
f 389/389/389 390/390/390 411/411/411 410/410/410
f 390/390/390 391/391/391 412/412/412 411/411/411
f 391/391/391 392/392/392 413/413/413 412/412/412
f 392/392/392 393/393/393 414/414/414 413/413/413
f 393/393/393 394/394/394 415/415/415 414/414/414
f 394/394/394 395/395/395 416/416/416 415/415/415
f 395/395/395 396/396/396 417/417/417 416/416/416
f 396/396/396 397/397/397 418/418/418 417/417/417
f 397/397/397 398/398/398 419/419/419 418/418/418
f 398/398/398 399/399/399 420/420/420 419/419/419
f 400/400/401 401/401/400 422/422/421 421/421/422
f 401/401/400 402/402/402 423/423/423 422/422/421
f 402/402/402 403/403/403 424/424/424 423/423/423
f 403/403/403 404/404/404 425/425/425 424/424/424
f 404/404/404 405/405/405 426/426/426 425/425/425
f 405/405/405 406/406/406 427/427/427 426/426/426
f 406/406/406 407/407/407 428/428/428 427/427/427
f 407/407/407 408/408/408 429/429/429 428/428/428
f 408/408/408 409/409/409 430/430/430 429/429/429
f 409/409/409 410/410/410 431/431/431 430/430/430
f 410/410/410 411/411/411 432/432/432 431/431/431
f 411/411/411 412/412/412 433/433/433 432/432/432
f 412/412/412 413/413/413 434/434/434 433/433/433
f 413/413/413 414/414/414 435/435/435 434/434/434
f 414/414/414 415/415/415 436/436/436 435/435/435
f 415/415/415 416/416/416 437/437/437 436/436/436
f 416/416/416 417/417/417 438/438/438 437/437/437
f 417/417/417 418/418/418 439/439/439 438/438/438
f 418/418/418 419/419/419 440/440/440 439/439/439
f 419/419/419 420/420/420 441/441/441 440/440/440
g default
v 11.439735 -0.647591 -3.716995
v 9.731220 -0.647591 -7.070145
v 7.070145 -0.647591 -9.731219
v 3.716995 -0.647591 -11.439734
v 0.000000 -0.647591 -12.028447
v -3.716995 -0.647591 -11.439733
v -7.070143 -0.647591 -9.731217
v -9.731216 -0.647591 -7.070143
v -11.439731 -0.647591 -3.716994
v -12.028444 -0.647591 -0.000000
v -11.439731 -0.647591 3.716993
v -9.731215 -0.647591 7.070142
v -7.070142 -0.647591 9.731215
v -3.716994 -0.647591 11.439730
v -0.000000 -0.647591 12.028443
v 3.716993 -0.647591 11.439729
v 7.070141 -0.647591 9.731215
v 9.731214 -0.647591 7.070141
v 11.439728 -0.647591 3.716993
v 12.028441 -0.647591 -0.000000
v 11.439735 7.716882 -3.716995
v 9.731220 7.716882 -7.070145
v 7.070145 7.716882 -9.731219
v 3.716995 7.716882 -11.439734
v 0.000000 7.716882 -12.028447
v -3.716995 7.716882 -11.439733
v -7.070143 7.716882 -9.731217
v -9.731216 7.716882 -7.070143
v -11.439731 7.716882 -3.716994
v -12.028444 7.716882 -0.000000
v -11.439731 7.716882 3.716993
v -9.731215 7.716882 7.070142
v -7.070142 7.716882 9.731215
v -3.716994 7.716882 11.439730
v -0.000000 7.716882 12.028443
v 3.716993 7.716882 11.439729
v 7.070141 7.716882 9.731215
v 9.731214 7.716882 7.070141
v 11.439728 7.716882 3.716993
v 12.028441 7.716882 -0.000000
vt 2.318800 -0.000000
vt 1.877655 -0.000000
vt 1.877655 1.000000
vt 2.318800 1.000000
vt 1.447219 -0.000000
vt 1.447219 1.000000
vt 0.991974 -0.000000
vt 0.991974 1.000000
vt 0.487332 -0.000000
vt 0.487332 1.000000
vt -0.017311 -0.000000
vt -0.017311 1.000000
vt -0.472555 -0.000000
vt -0.472555 1.000000
vt -0.966816 -0.000000
vt -0.966816 1.000000
vt -1.404072 -0.000000
vt -1.404072 1.000000
vt -1.901654 -0.000000
vt -1.901654 1.000000
vt -1.404072 -0.000000
vt -1.404072 1.000000
vt -0.966816 -0.000000
vt -0.966816 1.000000
vt -0.472555 -0.000000
vt -0.472555 1.000000
vt -0.017311 -0.000000
vt -0.017311 1.000000
vt 0.487332 -0.000000
vt 0.487332 1.000000
vt 0.991974 -0.000000
vt 0.991974 1.000000
vt 1.447219 -0.000000
vt 1.447219 1.000000
vt 1.877654 -0.000000
vt 1.877654 1.000000
vt 2.318799 -0.000000
vt 2.318799 1.000000
vt 2.792677 -0.000000
vt 2.792677 1.000000
vn -0.951057 0.000000 0.309016
vn -0.951057 0.000000 0.309016
vn -0.809017 0.000000 0.587785
vn -0.809017 0.000000 0.587785
vn -0.587785 0.000000 0.809017
vn -0.587785 0.000000 0.809017
vn -0.309017 0.000000 0.951057
vn -0.309017 0.000000 0.951057
vn 0.000000 0.000000 1.000000
vn 0.000000 0.000000 1.000000
vn 0.309017 0.000000 0.951057
vn 0.309017 0.000000 0.951057
vn 0.587785 0.000000 0.809017
vn 0.587785 0.000000 0.809017
vn 0.809017 0.000000 0.587785
vn 0.809017 0.000000 0.587785
vn 0.951057 0.000000 0.309017
vn 0.951057 0.000000 0.309017
vn 1.000000 0.000000 -0.000000
vn 1.000000 0.000000 -0.000000
vn 0.951057 0.000000 -0.309017
vn 0.951057 0.000000 -0.309017
vn 0.809017 0.000000 -0.587785
vn 0.809017 0.000000 -0.587785
vn 0.587785 0.000000 -0.809017
vn 0.587785 0.000000 -0.809017
vn 0.309017 0.000000 -0.951057
vn 0.309017 0.000000 -0.951057
vn -0.000000 0.000000 -1.000000
vn -0.000000 0.000000 -1.000000
vn -0.309017 0.000000 -0.951056
vn -0.309017 0.000000 -0.951056
vn -0.587785 0.000000 -0.809017
vn -0.587785 0.000000 -0.809017
vn -0.809017 0.000000 -0.587785
vn -0.809017 0.000000 -0.587785
vn -0.951057 0.000000 -0.309017
vn -0.951057 0.000000 -0.309017
vn -1.000000 0.000000 -0.000001
vn -1.000000 0.000000 -0.000001
s 1
g pCylinder1
usemtl initialShadingGroup
f 442/442/442 462/445/443 463/444/444 443/443/445
f 443/443/445 463/444/444 464/447/446 444/446/447
f 444/446/447 464/447/446 465/449/448 445/448/449
f 445/448/449 465/449/448 466/451/450 446/450/451
f 446/450/451 466/451/450 467/453/452 447/452/453
f 447/452/453 467/453/452 468/455/454 448/454/455
f 448/454/455 468/455/454 469/457/456 449/456/457
f 449/456/457 469/457/456 470/459/458 450/458/459
f 450/458/459 470/459/458 471/461/460 451/460/461
f 451/460/461 471/461/460 472/463/462 452/462/463
f 452/462/463 472/463/462 473/465/464 453/464/465
f 453/464/465 473/465/464 474/467/466 454/466/467
f 454/466/467 474/467/466 475/469/468 455/468/469
f 455/468/469 475/469/468 476/471/470 456/470/471
f 456/470/471 476/471/470 477/473/472 457/472/473
f 457/472/473 477/473/472 478/475/474 458/474/475
f 458/474/475 478/475/474 479/477/476 459/476/477
f 459/476/477 479/477/476 480/479/478 460/478/479
f 460/478/479 480/479/478 481/481/480 461/480/481
f 461/480/481 481/481/480 462/445/443 442/442/442
g default
v 21.791344 0.000000 -7.080456
v 18.536825 0.000000 -13.467807
v 13.467791 0.000000 -18.536839
v 7.080432 0.000000 -21.791356
v -0.000003 0.000000 -22.912770
v -7.080440 0.000000 -21.791341
v -13.467788 0.000000 -18.536802
v -18.536818 0.000000 -13.467769
v -21.791336 0.000000 -7.080411
v -22.912767 0.000000 0.000022
v -21.791336 0.000000 7.080457
v -18.536818 0.000000 13.467800
v -13.467785 0.000000 18.536833
v -7.080430 0.000000 21.791334
v 0.000003 0.000000 22.912764
v 7.080436 0.000000 21.791316
v 13.467791 0.000000 18.536799
v 18.536813 0.000000 13.467769
v 21.791331 0.000000 7.080413
v 22.912761 0.000000 -0.000020
v 21.523058 3.584343 -6.993284
v 18.308606 3.584343 -13.301995
v 13.301980 3.584343 -18.308620
v 6.993260 3.584343 -21.523070
v -0.000003 3.584343 -22.630677
v -6.993268 3.584343 -21.523052
v -13.301978 3.584343 -18.308586
v -18.308600 3.584343 -13.301960
v -21.523050 3.584343 -6.993240
v -22.630672 3.584343 0.000022
v -21.523050 3.584343 6.993282
v -18.308599 3.584343 13.301991
v -13.301975 3.584343 18.308614
v -6.993259 3.584343 21.523049
v 0.000003 3.584343 22.630670
v 6.993264 3.584343 21.523030
v 13.301980 3.584343 18.308580
v 18.308594 3.584343 13.301960
v 21.523044 3.584343 6.993242
v 22.630667 3.584343 -0.000020
v 20.724801 7.080432 -6.733915
v 17.629569 7.080432 -12.808646
v 12.808627 7.080432 -17.629583
v 6.733892 7.080432 -20.724812
v -0.000003 7.080432 -21.791341
v -6.733899 7.080432 -20.724797
v -12.808628 7.080432 -17.629549
v -17.629563 7.080432 -12.808607
v -20.724794 7.080432 -6.733871
v -21.791336 7.080432 0.000021
v -20.724794 7.080432 6.733913
v -17.629561 7.080432 12.808642
v -12.808627 7.080432 17.629577
v -6.733889 7.080432 20.724791
v 0.000003 7.080432 21.791334
v 6.733895 7.080432 20.724775
v 12.808627 7.080432 17.629543
v 17.629558 7.080432 12.808608
v 20.724788 7.080432 6.733872
v 21.791331 7.080432 -0.000019
v 19.416230 10.402176 -6.308733
v 16.516431 10.402176 -11.999905
v 11.999885 10.402176 -16.516447
v 6.308713 10.402176 -19.416242
v -0.000002 10.402176 -20.415427
v -6.308718 10.402176 -19.416227
v -11.999888 10.402176 -16.516410
v -16.516427 10.402176 -11.999871
v -19.416222 10.402176 -6.308694
v -20.415424 10.402176 0.000020
v -19.416222 10.402176 6.308732
v -16.516425 10.402176 11.999900
v -11.999884 10.402176 16.516441
v -6.308709 10.402176 19.416220
v 0.000003 10.402176 20.415424
v 6.308715 10.402176 19.416205
v 11.999886 10.402176 16.516407
v 16.516420 10.402176 11.999867
v 19.416217 10.402176 6.308696
v 20.415419 10.402176 -0.000018
v 17.629569 13.467783 -5.728209
v 14.996607 13.467783 -10.895684
v 10.895672 13.467783 -14.996613
v 5.728191 13.467783 -17.629580
v -0.000002 13.467783 -18.536821
v -5.728197 13.467783 -17.629564
v -10.895670 13.467783 -14.996588
v -14.996600 13.467783 -10.895653
v -17.629561 13.467783 -5.728174
v -18.536818 13.467783 0.000018
v -17.629561 13.467783 5.728210
v -14.996600 13.467783 10.895682
v -10.895663 13.467783 14.996600
v -5.728187 13.467783 17.629561
v 0.000002 13.467783 18.536814
v 5.728194 13.467783 17.629543
v 10.895669 13.467783 14.996582
v 14.996597 13.467783 10.895651
v 17.629557 13.467783 5.728175
v 18.536813 13.467783 -0.000016
v 15.408808 16.201769 -5.006639
v 13.107515 16.201769 -9.523178
v 9.523166 16.201769 -13.107523
v 5.006623 16.201769 -15.408806
v -0.000002 16.201769 -16.201777
v -5.006627 16.201769 -15.408803
v -9.523165 16.201769 -13.107496
v -13.107510 16.201769 -9.523152
v -15.408802 16.201769 -5.006608
v -16.201772 16.201769 0.000016
v -15.408802 16.201769 5.006638
v -13.107509 16.201769 9.523174
v -9.523159 16.201769 13.107509
v -5.006621 16.201769 15.408800
v 0.000002 16.201769 16.201770
v 5.006623 16.201769 15.408800
v 9.523165 16.201769 13.107493
v 13.107507 16.201769 9.523150
v 15.408799 16.201769 5.006610
v 16.201769 16.201769 -0.000015
v 12.808631 18.536813 -4.161788
v 10.895673 18.536813 -7.916177
v 7.916169 18.536813 -10.895680
v 4.161774 18.536813 -12.808634
v -0.000001 18.536813 -13.467790
v -4.161778 18.536813 -12.808625
v -7.916168 18.536813 -10.895662
v -10.895669 18.536813 -7.916155
v -12.808627 18.536813 -4.161761
v -13.467786 18.536813 0.000014
v -12.808627 18.536813 4.161786
v -10.895668 18.536813 7.916178
v -7.916162 18.536813 10.895674
v -4.161773 18.536813 12.808633
v 0.000002 18.536813 13.467785
v 4.161776 18.536813 12.808624
v 7.916168 18.536813 10.895659
v 10.895666 18.536813 7.916157
v 12.808624 18.536813 4.161762
v 13.467783 18.536813 -0.000012
v 9.893064 20.415419 -3.214459
v 8.415543 20.415419 -6.114257
v 6.114249 20.415419 -8.415546
v 3.214449 20.415419 -9.893066
v -0.000001 20.415419 -10.402181
v -3.214453 20.415419 -9.893058
v -6.114248 20.415419 -8.415533
v -8.415540 20.415419 -6.114238
v -9.893060 20.415419 -3.214439
v -10.402178 20.415419 0.000011
v -9.893060 20.415419 3.214460
v -8.415539 20.415419 6.114254
v -6.114246 20.415419 8.415546
v -3.214448 20.415419 9.893062
v 0.000002 20.415419 10.402178
v 3.214451 20.415419 9.893055
v 6.114248 20.415419 8.415534
v 8.415538 20.415419 6.114238
v 9.893058 20.415419 3.214441
v 10.402176 20.415419 -0.000009
v 6.733896 21.791331 -2.187981
v 5.728194 21.791331 -4.161780
v 4.161776 21.791331 -5.728197
v 2.187975 21.791331 -6.733896
v -0.000000 21.791331 -7.080436
v -2.187975 21.791331 -6.733891
v -4.161776 21.791331 -5.728189
v -5.728192 21.791331 -4.161769
v -6.733893 21.791331 -2.187967
v -7.080434 21.791331 0.000008
v -6.733893 21.791331 2.187982
v -5.728191 21.791331 4.161783
v -4.161773 21.791331 5.728195
v -2.187973 21.791331 6.733896
v 0.000001 21.791331 7.080433
v 2.187976 21.791331 6.733892
v 4.161774 21.791331 5.728187
v 5.728192 21.791331 4.161770
v 6.733892 21.791331 2.187968
v 7.080433 21.791331 -0.000006
v 3.408917 22.630667 -1.107626
v 2.899799 22.630667 -2.106829
v 2.106827 22.630667 -2.899799
v 1.107624 22.630667 -3.408917
v 0.000000 22.630667 -3.584347
v -1.107624 22.630667 -3.408915
v -2.106826 22.630667 -2.899795
v -2.899798 22.630667 -2.106822
v -3.408916 22.630667 -1.107620
v -3.584346 22.630667 0.000005
v -3.408916 22.630667 1.107628
v -2.899797 22.630667 2.106830
v -2.106826 22.630667 2.899801
v -1.107623 22.630667 3.408918
v 0.000001 22.630667 3.584348
v 1.107625 22.630667 3.408915
v 2.106826 22.630667 2.899797
v 2.899797 22.630667 2.106824
v 3.408915 22.630667 1.107622
v 3.584346 22.630667 -0.000002
v 0.000000 22.912761 0.000001
vt 0.975528 0.654509
vt 0.904509 0.793893
vt 0.899528 0.790275
vt 0.969674 0.652606
vt 0.793893 0.904509
vt 0.790274 0.899529
vt 0.654508 0.975529
vt 0.652606 0.969674
vt 0.500000 1.000000
vt 0.500000 0.993844
vt 0.345491 0.975528
vt 0.347394 0.969674
vt 0.206107 0.904508
vt 0.209725 0.899528
vt 0.095491 0.793892
vt 0.100471 0.790274
vt 0.024472 0.654508
vt 0.030326 0.652606
vt -0.000000 0.500000
vt 0.006156 0.500000
vt 0.024472 0.345491
vt 0.030326 0.347393
vt 0.095491 0.206107
vt 0.100472 0.209725
vt 0.206107 0.095491
vt 0.209726 0.100471
vt 0.345491 0.024472
vt 0.347394 0.030326
vt 0.500000 0.000000
vt 0.500000 0.006156
vt 0.654508 0.024472
vt 0.652606 0.030327
vt 0.793893 0.095492
vt 0.790274 0.100472
vt 0.904508 0.206108
vt 0.899528 0.209726
vt 0.975528 0.345492
vt 0.969674 0.347394
vt 1.000000 0.500000
vt 0.993844 0.500000
vt 0.884711 0.779509
vt 0.952254 0.646947
vt 0.779508 0.884711
vt 0.646946 0.952255
vt 0.500000 0.975528
vt 0.353053 0.952254
vt 0.220491 0.884710
vt 0.115289 0.779508
vt 0.047746 0.646946
vt 0.024472 0.500000
vt 0.047746 0.353053
vt 0.115289 0.220491
vt 0.220491 0.115289
vt 0.353054 0.047746
vt 0.500000 0.024472
vt 0.646946 0.047746
vt 0.779508 0.115290
vt 0.884710 0.220492
vt 0.952254 0.353054
vt 0.975528 0.500000
vt 0.860420 0.761860
vt 0.923699 0.637668
vt 0.761860 0.860420
vt 0.637668 0.923699
vt 0.500000 0.945503
vt 0.362332 0.923699
vt 0.238140 0.860419
vt 0.139580 0.761860
vt 0.076301 0.637668
vt 0.054497 0.500000
vt 0.076301 0.362332
vt 0.139580 0.238139
vt 0.238140 0.139580
vt 0.362332 0.076301
vt 0.500000 0.054497
vt 0.637668 0.076301
vt 0.761860 0.139581
vt 0.860420 0.238140
vt 0.923699 0.362332
vt 0.945503 0.500000
vt 0.827254 0.737764
vt 0.884711 0.625000
vt 0.737764 0.827254
vt 0.625000 0.884711
vt 0.500000 0.904508
vt 0.375000 0.884710
vt 0.262236 0.827254
vt 0.172746 0.737764
vt 0.115289 0.625000
vt 0.095491 0.500000
vt 0.115289 0.375000
vt 0.172746 0.262236
vt 0.262236 0.172746
vt 0.375000 0.115289
vt 0.500000 0.095491
vt 0.625000 0.115290
vt 0.737764 0.172746
vt 0.827254 0.262236
vt 0.884710 0.375000
vt 0.904508 0.500000
vt 0.786031 0.707814
vt 0.836249 0.609254
vt 0.707814 0.786031
vt 0.609254 0.836249
vt 0.500000 0.853553
vt 0.390746 0.836249
vt 0.292186 0.786030
vt 0.213969 0.707813
vt 0.163751 0.609254
vt 0.146446 0.500000
vt 0.163751 0.390746
vt 0.213969 0.292186
vt 0.292186 0.213969
vt 0.390746 0.163751
vt 0.500000 0.146447
vt 0.609254 0.163751
vt 0.707813 0.213969
vt 0.786031 0.292187
vt 0.836249 0.390746
vt 0.853553 0.500000
vt 0.737764 0.672746
vt 0.779509 0.590818
vt 0.672746 0.737764
vt 0.590818 0.779509
vt 0.500000 0.793893
vt 0.409182 0.779508
vt 0.327254 0.737764
vt 0.262236 0.672745
vt 0.220491 0.590817
vt 0.206107 0.500000
vt 0.220491 0.409182
vt 0.262236 0.327254
vt 0.327254 0.262236
vt 0.409182 0.220491
vt 0.500000 0.206107
vt 0.590818 0.220491
vt 0.672746 0.262236
vt 0.737764 0.327254
vt 0.779508 0.409182
vt 0.793893 0.500000
vt 0.683643 0.633425
vt 0.715885 0.570145
vt 0.633424 0.683643
vt 0.570145 0.715885
vt 0.500000 0.726995
vt 0.429854 0.715885
vt 0.366575 0.683643
vt 0.316357 0.633424
vt 0.284115 0.570145
vt 0.273005 0.500000
vt 0.284115 0.429854
vt 0.316357 0.366575
vt 0.366575 0.316357
vt 0.429855 0.284115
vt 0.500000 0.273005
vt 0.570145 0.284115
vt 0.633424 0.316357
vt 0.683643 0.366576
vt 0.715885 0.429855
vt 0.726995 0.500000
vt 0.625000 0.590818
vt 0.646946 0.547746
vt 0.590818 0.625000
vt 0.547746 0.646946
vt 0.500000 0.654508
vt 0.452254 0.646946
vt 0.409182 0.625000
vt 0.375000 0.590818
vt 0.353054 0.547745
vt 0.345491 0.500000
vt 0.353054 0.452254
vt 0.375000 0.409182
vt 0.409182 0.375000
vt 0.452254 0.353054
vt 0.500000 0.345491
vt 0.547746 0.353054
vt 0.590818 0.375000
vt 0.625000 0.409182
vt 0.646946 0.452254
vt 0.654508 0.500000
vt 0.563279 0.545975
vt 0.574389 0.524170
vt 0.545975 0.563279
vt 0.524170 0.574389
vt 0.500000 0.578217
vt 0.475829 0.574389
vt 0.454025 0.563279
vt 0.436721 0.545975
vt 0.425611 0.524170
vt 0.421783 0.500000
vt 0.425611 0.475829
vt 0.436721 0.454025
vt 0.454025 0.436721
vt 0.475829 0.425611
vt 0.500000 0.421783
vt 0.524170 0.425611
vt 0.545975 0.436721
vt 0.563279 0.454025
vt 0.574389 0.475829
vt 0.578217 0.500000
vt 0.500000 0.500000
vn -0.948125 -0.078459 0.308064
vn -0.939675 -0.154249 0.305318
vn -0.799335 -0.154249 0.580751
vn -0.806523 -0.078459 0.585974
vn -0.580750 -0.154249 0.799335
vn -0.585973 -0.078459 0.806523
vn -0.305317 -0.154249 0.939675
vn -0.308063 -0.078459 0.948125
vn 0.000001 -0.154249 0.988032
vn 0.000001 -0.078459 0.996917
vn 0.305320 -0.154249 0.939674
vn 0.308066 -0.078459 0.948124
vn 0.580752 -0.154249 0.799334
vn 0.585974 -0.078459 0.806522
vn 0.799335 -0.154249 0.580750
vn 0.806523 -0.078459 0.585973
vn 0.939674 -0.154248 0.305319
vn 0.948125 -0.078459 0.308064
vn 0.988032 -0.154249 -0.000000
vn 0.996917 -0.078459 -0.000000
vn 0.939674 -0.154249 -0.305319
vn 0.948125 -0.078459 -0.308065
vn 0.799334 -0.154248 -0.580751
vn 0.806523 -0.078459 -0.585974
vn 0.580750 -0.154249 -0.799335
vn 0.585972 -0.078459 -0.806524
vn 0.305318 -0.154249 -0.939675
vn 0.308063 -0.078459 -0.948125
vn -0.000001 -0.154249 -0.988032
vn -0.000001 -0.078459 -0.996917
vn -0.305320 -0.154249 -0.939674
vn -0.308065 -0.078459 -0.948124
vn -0.580751 -0.154249 -0.799335
vn -0.585973 -0.078459 -0.806523
vn -0.799335 -0.154249 -0.580750
vn -0.806523 -0.078459 -0.585973
vn -0.939674 -0.154249 -0.305319
vn -0.948125 -0.078459 -0.308064
vn -0.988032 -0.154249 -0.000001
vn -0.996917 -0.078459 -0.000001
vn -0.905805 -0.304789 0.294313
vn -0.770524 -0.304789 0.559819
vn -0.559818 -0.304789 0.770524
vn -0.294313 -0.304789 0.905806
vn 0.000001 -0.304789 0.952420
vn 0.294315 -0.304789 0.905805
vn 0.559820 -0.304789 0.770523
vn 0.770524 -0.304789 0.559818
vn 0.905805 -0.304789 0.294314
vn 0.952420 -0.304789 0.000000
vn 0.905805 -0.304788 -0.294314
vn 0.770524 -0.304789 -0.559819
vn 0.559818 -0.304789 -0.770525
vn 0.294313 -0.304789 -0.905806
vn -0.000001 -0.304789 -0.952420
vn -0.294315 -0.304789 -0.905805
vn -0.559819 -0.304789 -0.770524
vn -0.770524 -0.304789 -0.559818
vn -0.905805 -0.304788 -0.294314
vn -0.952420 -0.304789 -0.000001
vn -0.850280 -0.447994 0.276272
vn -0.723291 -0.447994 0.525502
vn -0.525501 -0.447994 0.723291
vn -0.276271 -0.447994 0.850280
vn 0.000001 -0.447994 0.894037
vn 0.276274 -0.447994 0.850279
vn 0.525503 -0.447994 0.723290
vn 0.723291 -0.447993 0.525501
vn 0.850280 -0.447994 0.276272
vn 0.894037 -0.447994 0.000000
vn 0.850279 -0.447994 -0.276273
vn 0.723291 -0.447994 -0.525502
vn 0.525500 -0.447994 -0.723291
vn 0.276272 -0.447994 -0.850280
vn -0.000001 -0.447994 -0.894037
vn -0.276274 -0.447994 -0.850279
vn -0.525502 -0.447994 -0.723291
vn -0.723291 -0.447994 -0.525501
vn -0.850280 -0.447993 -0.276273
vn -0.894037 -0.447994 -0.000001
vn -0.774475 -0.580401 0.251641
vn -0.658807 -0.580401 0.478652
vn -0.478651 -0.580401 0.658807
vn -0.251641 -0.580401 0.774475
vn 0.000001 -0.580401 0.814331
vn 0.251643 -0.580401 0.774475
vn 0.478653 -0.580401 0.658807
vn 0.658808 -0.580400 0.478652
vn 0.774475 -0.580400 0.251642
vn 0.814331 -0.580401 0.000000
vn 0.774475 -0.580401 -0.251642
vn 0.658807 -0.580401 -0.478652
vn 0.478651 -0.580401 -0.658808
vn 0.251642 -0.580401 -0.774475
vn -0.000001 -0.580400 -0.814331
vn -0.251644 -0.580400 -0.774475
vn -0.478652 -0.580400 -0.658808
vn -0.658808 -0.580400 -0.478652
vn -0.774475 -0.580400 -0.251642
vn -0.814331 -0.580400 -0.000001
vn -0.680318 -0.698789 0.221048
vn -0.578712 -0.698789 0.420460
vn -0.420459 -0.698789 0.578713
vn -0.221048 -0.698789 0.680318
vn 0.000001 -0.698789 0.715328
vn 0.221049 -0.698789 0.680317
vn 0.420460 -0.698788 0.578712
vn 0.578713 -0.698788 0.420459
vn 0.680318 -0.698788 0.221048
vn 0.715328 -0.698789 0.000000
vn 0.680318 -0.698789 -0.221049
vn 0.578712 -0.698789 -0.420460
vn 0.420459 -0.698788 -0.578713
vn 0.221049 -0.698788 -0.680318
vn -0.000000 -0.698788 -0.715329
vn -0.221050 -0.698788 -0.680318
vn -0.420460 -0.698788 -0.578713
vn -0.578713 -0.698788 -0.420460
vn -0.680318 -0.698788 -0.221049
vn -0.715328 -0.698788 -0.000001
vn -0.570314 -0.800252 0.185306
vn -0.485138 -0.800252 0.352474
vn -0.352473 -0.800252 0.485138
vn -0.185306 -0.800252 0.570314
vn 0.000000 -0.800252 0.599664
vn 0.185307 -0.800252 0.570314
vn 0.352474 -0.800252 0.485138
vn 0.485139 -0.800252 0.352473
vn 0.570314 -0.800252 0.185306
vn 0.599664 -0.800252 0.000000
vn 0.570314 -0.800252 -0.185306
vn 0.485138 -0.800252 -0.352474
vn 0.352473 -0.800252 -0.485139
vn 0.185306 -0.800252 -0.570315
vn -0.000000 -0.800252 -0.599664
vn -0.185307 -0.800252 -0.570314
vn -0.352474 -0.800252 -0.485138
vn -0.485139 -0.800252 -0.352474
vn -0.570314 -0.800252 -0.185306
vn -0.599664 -0.800252 -0.000001
vn -0.447711 -0.882266 0.145470
vn -0.380846 -0.882266 0.276701
vn -0.276700 -0.882266 0.380846
vn -0.145470 -0.882266 0.447711
vn 0.000001 -0.882266 0.470752
vn 0.145471 -0.882266 0.447711
vn 0.276701 -0.882266 0.380846
vn 0.380847 -0.882266 0.276701
vn 0.447712 -0.882266 0.145470
vn 0.470752 -0.882266 0.000000
vn 0.447712 -0.882266 -0.145470
vn 0.380846 -0.882266 -0.276701
vn 0.276701 -0.882266 -0.380846
vn 0.145470 -0.882266 -0.447712
vn -0.000001 -0.882266 -0.470752
vn -0.145471 -0.882266 -0.447711
vn -0.276701 -0.882266 -0.380846
vn -0.380847 -0.882266 -0.276701
vn -0.447712 -0.882266 -0.145470
vn -0.470752 -0.882266 -0.000000
vn -0.317252 -0.942722 0.103081
vn -0.269870 -0.942723 0.196072
vn -0.196072 -0.942723 0.269870
vn -0.103081 -0.942723 0.317251
vn 0.000000 -0.942722 0.333578
vn 0.103082 -0.942722 0.317252
vn 0.196073 -0.942722 0.269870
vn 0.269871 -0.942722 0.196072
vn 0.317252 -0.942722 0.103081
vn 0.333578 -0.942722 0.000000
vn 0.317252 -0.942722 -0.103081
vn 0.269870 -0.942722 -0.196072
vn 0.196072 -0.942722 -0.269871
vn 0.103081 -0.942722 -0.317252
vn -0.000000 -0.942722 -0.333578
vn -0.103082 -0.942722 -0.317252
vn -0.196073 -0.942722 -0.269870
vn -0.269871 -0.942722 -0.196073
vn -0.317252 -0.942722 -0.103081
vn -0.333578 -0.942722 -0.000000
vn -0.190555 -0.979722 0.061915
vn -0.162095 -0.979722 0.117769
vn -0.117769 -0.979722 0.162095
vn -0.061915 -0.979722 0.190555
vn 0.000000 -0.979722 0.200361
vn 0.061915 -0.979722 0.190555
vn 0.117769 -0.979722 0.162096
vn 0.162096 -0.979722 0.117769
vn 0.190555 -0.979722 0.061915
vn 0.200361 -0.979722 0.000000
vn 0.190555 -0.979722 -0.061915
vn 0.162095 -0.979722 -0.117769
vn 0.117769 -0.979722 -0.162096
vn 0.061915 -0.979722 -0.190555
vn -0.000000 -0.979722 -0.200361
vn -0.061915 -0.979722 -0.190554
vn -0.117770 -0.979722 -0.162096
vn -0.162096 -0.979722 -0.117770
vn -0.190555 -0.979722 -0.061915
vn -0.200361 -0.979722 -0.000000
vn -0.000000 -1.000000 0.000000
s 1
g pSphere1
usemtl lambert3SG
f 482/482/482 502/485/483 503/484/484 483/483/485
f 483/483/485 503/484/484 504/487/486 484/486/487
f 484/486/487 504/487/486 505/489/488 485/488/489
f 485/488/489 505/489/488 506/491/490 486/490/491
f 486/490/491 506/491/490 507/493/492 487/492/493
f 487/492/493 507/493/492 508/495/494 488/494/495
f 488/494/495 508/495/494 509/497/496 489/496/497
f 489/496/497 509/497/496 510/499/498 490/498/499
f 490/498/499 510/499/498 511/501/500 491/500/501
f 491/500/501 511/501/500 512/503/502 492/502/503
f 492/502/503 512/503/502 513/505/504 493/504/505
f 493/504/505 513/505/504 514/507/506 494/506/507
f 494/506/507 514/507/506 515/509/508 495/508/509
f 495/508/509 515/509/508 516/511/510 496/510/511
f 496/510/511 516/511/510 517/513/512 497/512/513
f 497/512/513 517/513/512 518/515/514 498/514/515
f 498/514/515 518/515/514 519/517/516 499/516/517
f 499/516/517 519/517/516 520/519/518 500/518/519
f 500/518/519 520/519/518 521/521/520 501/520/521
f 501/520/521 521/521/520 502/485/483 482/482/482
f 502/485/483 522/523/522 523/522/523 503/484/484
f 503/484/484 523/522/523 524/524/524 504/487/486
f 504/487/486 524/524/524 525/525/525 505/489/488
f 505/489/488 525/525/525 526/526/526 506/491/490
f 506/491/490 526/526/526 527/527/527 507/493/492
f 507/493/492 527/527/527 528/528/528 508/495/494
f 508/495/494 528/528/528 529/529/529 509/497/496
f 509/497/496 529/529/529 530/530/530 510/499/498
f 510/499/498 530/530/530 531/531/531 511/501/500
f 511/501/500 531/531/531 532/532/532 512/503/502
f 512/503/502 532/532/532 533/533/533 513/505/504
f 513/505/504 533/533/533 534/534/534 514/507/506
f 514/507/506 534/534/534 535/535/535 515/509/508
f 515/509/508 535/535/535 536/536/536 516/511/510
f 516/511/510 536/536/536 537/537/537 517/513/512
f 517/513/512 537/537/537 538/538/538 518/515/514
f 518/515/514 538/538/538 539/539/539 519/517/516
f 519/517/516 539/539/539 540/540/540 520/519/518
f 520/519/518 540/540/540 541/541/541 521/521/520
f 521/521/520 541/541/541 522/523/522 502/485/483
f 522/523/522 542/543/542 543/542/543 523/522/523
f 523/522/523 543/542/543 544/544/544 524/524/524
f 524/524/524 544/544/544 545/545/545 525/525/525
f 525/525/525 545/545/545 546/546/546 526/526/526
f 526/526/526 546/546/546 547/547/547 527/527/527
f 527/527/527 547/547/547 548/548/548 528/528/528
f 528/528/528 548/548/548 549/549/549 529/529/529
f 529/529/529 549/549/549 550/550/550 530/530/530
f 530/530/530 550/550/550 551/551/551 531/531/531
f 531/531/531 551/551/551 552/552/552 532/532/532
f 532/532/532 552/552/552 553/553/553 533/533/533
f 533/533/533 553/553/553 554/554/554 534/534/534
f 534/534/534 554/554/554 555/555/555 535/535/535
f 535/535/535 555/555/555 556/556/556 536/536/536
f 536/536/536 556/556/556 557/557/557 537/537/537
f 537/537/537 557/557/557 558/558/558 538/538/538
f 538/538/538 558/558/558 559/559/559 539/539/539
f 539/539/539 559/559/559 560/560/560 540/540/540
f 540/540/540 560/560/560 561/561/561 541/541/541
f 541/541/541 561/561/561 542/543/542 522/523/522
f 542/543/542 562/563/562 563/562/563 543/542/543
f 543/542/543 563/562/563 564/564/564 544/544/544
f 544/544/544 564/564/564 565/565/565 545/545/545
f 545/545/545 565/565/565 566/566/566 546/546/546
f 546/546/546 566/566/566 567/567/567 547/547/547
f 547/547/547 567/567/567 568/568/568 548/548/548
f 548/548/548 568/568/568 569/569/569 549/549/549
f 549/549/549 569/569/569 570/570/570 550/550/550
f 550/550/550 570/570/570 571/571/571 551/551/551
f 551/551/551 571/571/571 572/572/572 552/552/552
f 552/552/552 572/572/572 573/573/573 553/553/553
f 553/553/553 573/573/573 574/574/574 554/554/554
f 554/554/554 574/574/574 575/575/575 555/555/555
f 555/555/555 575/575/575 576/576/576 556/556/556
f 556/556/556 576/576/576 577/577/577 557/557/557
f 557/557/557 577/577/577 578/578/578 558/558/558
f 558/558/558 578/578/578 579/579/579 559/559/559
f 559/559/559 579/579/579 580/580/580 560/560/560
f 560/560/560 580/580/580 581/581/581 561/561/561
f 561/561/561 581/581/581 562/563/562 542/543/542
f 562/563/562 582/583/582 583/582/583 563/562/563
f 563/562/563 583/582/583 584/584/584 564/564/564
f 564/564/564 584/584/584 585/585/585 565/565/565
f 565/565/565 585/585/585 586/586/586 566/566/566
f 566/566/566 586/586/586 587/587/587 567/567/567
f 567/567/567 587/587/587 588/588/588 568/568/568
f 568/568/568 588/588/588 589/589/589 569/569/569
f 569/569/569 589/589/589 590/590/590 570/570/570
f 570/570/570 590/590/590 591/591/591 571/571/571
f 571/571/571 591/591/591 592/592/592 572/572/572
f 572/572/572 592/592/592 593/593/593 573/573/573
f 573/573/573 593/593/593 594/594/594 574/574/574
f 574/574/574 594/594/594 595/595/595 575/575/575
f 575/575/575 595/595/595 596/596/596 576/576/576
f 576/576/576 596/596/596 597/597/597 577/577/577
f 577/577/577 597/597/597 598/598/598 578/578/578
f 578/578/578 598/598/598 599/599/599 579/579/579
f 579/579/579 599/599/599 600/600/600 580/580/580
f 580/580/580 600/600/600 601/601/601 581/581/581
f 581/581/581 601/601/601 582/583/582 562/563/562
f 582/583/582 602/603/602 603/602/603 583/582/583
f 583/582/583 603/602/603 604/604/604 584/584/584
f 584/584/584 604/604/604 605/605/605 585/585/585
f 585/585/585 605/605/605 606/606/606 586/586/586
f 586/586/586 606/606/606 607/607/607 587/587/587
f 587/587/587 607/607/607 608/608/608 588/588/588
f 588/588/588 608/608/608 609/609/609 589/589/589
f 589/589/589 609/609/609 610/610/610 590/590/590
f 590/590/590 610/610/610 611/611/611 591/591/591
f 591/591/591 611/611/611 612/612/612 592/592/592
f 592/592/592 612/612/612 613/613/613 593/593/593
f 593/593/593 613/613/613 614/614/614 594/594/594
f 594/594/594 614/614/614 615/615/615 595/595/595
f 595/595/595 615/615/615 616/616/616 596/596/596
f 596/596/596 616/616/616 617/617/617 597/597/597
f 597/597/597 617/617/617 618/618/618 598/598/598
f 598/598/598 618/618/618 619/619/619 599/599/599
f 599/599/599 619/619/619 620/620/620 600/600/600
f 600/600/600 620/620/620 621/621/621 601/601/601
f 601/601/601 621/621/621 602/603/602 582/583/582
f 602/603/602 622/623/622 623/622/623 603/602/603
f 603/602/603 623/622/623 624/624/624 604/604/604
f 604/604/604 624/624/624 625/625/625 605/605/605
f 605/605/605 625/625/625 626/626/626 606/606/606
f 606/606/606 626/626/626 627/627/627 607/607/607
f 607/607/607 627/627/627 628/628/628 608/608/608
f 608/608/608 628/628/628 629/629/629 609/609/609
f 609/609/609 629/629/629 630/630/630 610/610/610
f 610/610/610 630/630/630 631/631/631 611/611/611
f 611/611/611 631/631/631 632/632/632 612/612/612
f 612/612/612 632/632/632 633/633/633 613/613/613
f 613/613/613 633/633/633 634/634/634 614/614/614
f 614/614/614 634/634/634 635/635/635 615/615/615
f 615/615/615 635/635/635 636/636/636 616/616/616
f 616/616/616 636/636/636 637/637/637 617/617/617
f 617/617/617 637/637/637 638/638/638 618/618/618
f 618/618/618 638/638/638 639/639/639 619/619/619
f 619/619/619 639/639/639 640/640/640 620/620/620
f 620/620/620 640/640/640 641/641/641 621/621/621
f 621/621/621 641/641/641 622/623/622 602/603/602
f 622/623/622 642/643/642 643/642/643 623/622/623
f 623/622/623 643/642/643 644/644/644 624/624/624
f 624/624/624 644/644/644 645/645/645 625/625/625
f 625/625/625 645/645/645 646/646/646 626/626/626
f 626/626/626 646/646/646 647/647/647 627/627/627
f 627/627/627 647/647/647 648/648/648 628/628/628
f 628/628/628 648/648/648 649/649/649 629/629/629
f 629/629/629 649/649/649 650/650/650 630/630/630
f 630/630/630 650/650/650 651/651/651 631/631/631
f 631/631/631 651/651/651 652/652/652 632/632/632
f 632/632/632 652/652/652 653/653/653 633/633/633
f 633/633/633 653/653/653 654/654/654 634/634/634
f 634/634/634 654/654/654 655/655/655 635/635/635
f 635/635/635 655/655/655 656/656/656 636/636/636
f 636/636/636 656/656/656 657/657/657 637/637/637
f 637/637/637 657/657/657 658/658/658 638/638/638
f 638/638/638 658/658/658 659/659/659 639/639/639
f 639/639/639 659/659/659 660/660/660 640/640/640
f 640/640/640 660/660/660 661/661/661 641/641/641
f 641/641/641 661/661/661 642/643/642 622/623/622
f 642/643/642 662/663/662 663/662/663 643/642/643
f 643/642/643 663/662/663 664/664/664 644/644/644
f 644/644/644 664/664/664 665/665/665 645/645/645
f 645/645/645 665/665/665 666/666/666 646/646/646
f 646/646/646 666/666/666 667/667/667 647/647/647
f 647/647/647 667/667/667 668/668/668 648/648/648
f 648/648/648 668/668/668 669/669/669 649/649/649
f 649/649/649 669/669/669 670/670/670 650/650/650
f 650/650/650 670/670/670 671/671/671 651/651/651
f 651/651/651 671/671/671 672/672/672 652/652/652
f 652/652/652 672/672/672 673/673/673 653/653/653
f 653/653/653 673/673/673 674/674/674 654/654/654
f 654/654/654 674/674/674 675/675/675 655/655/655
f 655/655/655 675/675/675 676/676/676 656/656/656
f 656/656/656 676/676/676 677/677/677 657/657/657
f 657/657/657 677/677/677 678/678/678 658/658/658
f 658/658/658 678/678/678 679/679/679 659/659/659
f 659/659/659 679/679/679 680/680/680 660/660/660
f 660/660/660 680/680/680 681/681/681 661/661/661
f 661/661/661 681/681/681 662/663/662 642/643/642
f 662/663/662 682/682/682 663/662/663
f 663/662/663 682/682/682 664/664/664
f 664/664/664 682/682/682 665/665/665
f 665/665/665 682/682/682 666/666/666
f 666/666/666 682/682/682 667/667/667
f 667/667/667 682/682/682 668/668/668
f 668/668/668 682/682/682 669/669/669
f 669/669/669 682/682/682 670/670/670
f 670/670/670 682/682/682 671/671/671
f 671/671/671 682/682/682 672/672/672
f 672/672/672 682/682/682 673/673/673
f 673/673/673 682/682/682 674/674/674
f 674/674/674 682/682/682 675/675/675
f 675/675/675 682/682/682 676/676/676
f 676/676/676 682/682/682 677/677/677
f 677/677/677 682/682/682 678/678/678
f 678/678/678 682/682/682 679/679/679
f 679/679/679 682/682/682 680/680/680
f 680/680/680 682/682/682 681/681/681
f 681/681/681 682/682/682 662/663/662
